thermal_aware_mac_array/thermal_aware_mac_array.sim/sim_1/behav/xsim/mac_array_checkerboard_4x4.vcd
$date
   Mon Apr  6 17:06:04 2026
$end

$version
  2025.2
  $dumpfile ("mac_array_checkerboard_4x4.vcd") 
$end

$timescale
  1ps
$end

$scope module tb_mac_array $end
$var reg 1 ! clk $end
$var reg 1 " rst $end
$var reg 2 # workload_id [1:0] $end
$var integer 32 $ i [31:0] $end
$var integer 32 % j [31:0] $end
$var integer 32 & c [31:0] $end
$var integer 32 ' hot_i [31:0] $end
$var integer 32 ( hot_j [31:0] $end
$var integer 32 ) HOT_N [31:0] $end
$scope module dut $end
$var wire 1 * clk $end
$var wire 1 + rst $end
$scope module ROW[0].COL[0].u_mac $end
$var wire 1 * clk $end
$var wire 1 + rst $end
$var wire 1 , en $end
$var wire 8 - a [127:120] $end
$var wire 8 . b [127:120] $end
$var reg 32 / acc_out [511:480] $end
$var reg 16 0 mult_out [255:240] $end
$var reg 16 1 activity_count [255:240] $end
$var reg 16 2 mult [15:0] $end
$var reg 32 3 mult_ext [31:0] $end
$var reg 32 4 acc_next [31:0] $end
$upscope $end
$scope module ROW[0].COL[1].u_mac $end
$var wire 1 * clk $end
$var wire 1 + rst $end
$var wire 1 5 en $end
$var wire 8 6 a [119:112] $end
$var wire 8 7 b [119:112] $end
$var reg 32 8 acc_out [479:448] $end
$var reg 16 9 mult_out [239:224] $end
$var reg 16 : activity_count [239:224] $end
$var reg 16 ; mult [15:0] $end
$var reg 32 < mult_ext [31:0] $end
$var reg 32 = acc_next [31:0] $end
$upscope $end
$scope module ROW[0].COL[2].u_mac $end
$var wire 1 * clk $end
$var wire 1 + rst $end
$var wire 1 > en $end
$var wire 8 ? a [111:104] $end
$var wire 8 @ b [111:104] $end
$var reg 32 A acc_out [447:416] $end
$var reg 16 B mult_out [223:208] $end
$var reg 16 C activity_count [223:208] $end
$var reg 16 D mult [15:0] $end
$var reg 32 E mult_ext [31:0] $end
$var reg 32 F acc_next [31:0] $end
$upscope $end
$scope module ROW[0].COL[3].u_mac $end
$var wire 1 * clk $end
$var wire 1 + rst $end
$var wire 1 G en $end
$var wire 8 H a [103:96] $end
$var wire 8 I b [103:96] $end
$var reg 32 J acc_out [415:384] $end
$var reg 16 K mult_out [207:192] $end
$var reg 16 L activity_count [207:192] $end
$var reg 16 M mult [15:0] $end
$var reg 32 N mult_ext [31:0] $end
$var reg 32 O acc_next [31:0] $end
$upscope $end
$scope module ROW[1].COL[0].u_mac $end
$var wire 1 * clk $end
$var wire 1 + rst $end
$var wire 1 P en $end
$var wire 8 Q a [95:88] $end
$var wire 8 R b [95:88] $end
$var reg 32 S acc_out [383:352] $end
$var reg 16 T mult_out [191:176] $end
$var reg 16 U activity_count [191:176] $end
$var reg 16 V mult [15:0] $end
$var reg 32 W mult_ext [31:0] $end
$var reg 32 X acc_next [31:0] $end
$upscope $end
$scope module ROW[1].COL[1].u_mac $end
$var wire 1 * clk $end
$var wire 1 + rst $end
$var wire 1 Y en $end
$var wire 8 Z a [87:80] $end
$var wire 8 [ b [87:80] $end
$var reg 32 \ acc_out [351:320] $end
$var reg 16 ] mult_out [175:160] $end
$var reg 16 ^ activity_count [175:160] $end
$var reg 16 _ mult [15:0] $end
$var reg 32 ` mult_ext [31:0] $end
$var reg 32 a acc_next [31:0] $end
$upscope $end
$scope module ROW[1].COL[2].u_mac $end
$var wire 1 * clk $end
$var wire 1 + rst $end
$var wire 1 b en $end
$var wire 8 c a [79:72] $end
$var wire 8 d b [79:72] $end
$var reg 32 e acc_out [319:288] $end
$var reg 16 f mult_out [159:144] $end
$var reg 16 g activity_count [159:144] $end
$var reg 16 h mult [15:0] $end
$var reg 32 i mult_ext [31:0] $end
$var reg 32 j acc_next [31:0] $end
$upscope $end
$scope module ROW[1].COL[3].u_mac $end
$var wire 1 * clk $end
$var wire 1 + rst $end
$var wire 1 k en $end
$var wire 8 l a [71:64] $end
$var wire 8 m b [71:64] $end
$var reg 32 n acc_out [287:256] $end
$var reg 16 o mult_out [143:128] $end
$var reg 16 p activity_count [143:128] $end
$var reg 16 q mult [15:0] $end
$var reg 32 r mult_ext [31:0] $end
$var reg 32 s acc_next [31:0] $end
$upscope $end
$scope module ROW[2].COL[0].u_mac $end
$var wire 1 * clk $end
$var wire 1 + rst $end
$var wire 1 t en $end
$var wire 8 u a [63:56] $end
$var wire 8 v b [63:56] $end
$var reg 32 w acc_out [255:224] $end
$var reg 16 x mult_out [127:112] $end
$var reg 16 y activity_count [127:112] $end
$var reg 16 z mult [15:0] $end
$var reg 32 { mult_ext [31:0] $end
$var reg 32 | acc_next [31:0] $end
$upscope $end
$scope module ROW[2].COL[1].u_mac $end
$var wire 1 * clk $end
$var wire 1 + rst $end
$var wire 1 } en $end
$var wire 8 ~ a [55:48] $end
$var wire 8 !! b [55:48] $end
$var reg 32 "! acc_out [223:192] $end
$var reg 16 #! mult_out [111:96] $end
$var reg 16 $! activity_count [111:96] $end
$var reg 16 %! mult [15:0] $end
$var reg 32 &! mult_ext [31:0] $end
$var reg 32 '! acc_next [31:0] $end
$upscope $end
$scope module ROW[2].COL[2].u_mac $end
$var wire 1 * clk $end
$var wire 1 + rst $end
$var wire 1 (! en $end
$var wire 8 )! a [47:40] $end
$var wire 8 *! b [47:40] $end
$var reg 32 +! acc_out [191:160] $end
$var reg 16 ,! mult_out [95:80] $end
$var reg 16 -! activity_count [95:80] $end
$var reg 16 .! mult [15:0] $end
$var reg 32 /! mult_ext [31:0] $end
$var reg 32 0! acc_next [31:0] $end
$upscope $end
$scope module ROW[2].COL[3].u_mac $end
$var wire 1 * clk $end
$var wire 1 + rst $end
$var wire 1 1! en $end
$var wire 8 2! a [39:32] $end
$var wire 8 3! b [39:32] $end
$var reg 32 4! acc_out [159:128] $end
$var reg 16 5! mult_out [79:64] $end
$var reg 16 6! activity_count [79:64] $end
$var reg 16 7! mult [15:0] $end
$var reg 32 8! mult_ext [31:0] $end
$var reg 32 9! acc_next [31:0] $end
$upscope $end
$scope module ROW[3].COL[0].u_mac $end
$var wire 1 * clk $end
$var wire 1 + rst $end
$var wire 1 :! en $end
$var wire 8 ;! a [31:24] $end
$var wire 8 <! b [31:24] $end
$var reg 32 =! acc_out [127:96] $end
$var reg 16 >! mult_out [63:48] $end
$var reg 16 ?! activity_count [63:48] $end
$var reg 16 @! mult [15:0] $end
$var reg 32 A! mult_ext [31:0] $end
$var reg 32 B! acc_next [31:0] $end
$upscope $end
$scope module ROW[3].COL[1].u_mac $end
$var wire 1 * clk $end
$var wire 1 + rst $end
$var wire 1 C! en $end
$var wire 8 D! a [23:16] $end
$var wire 8 E! b [23:16] $end
$var reg 32 F! acc_out [95:64] $end
$var reg 16 G! mult_out [47:32] $end
$var reg 16 H! activity_count [47:32] $end
$var reg 16 I! mult [15:0] $end
$var reg 32 J! mult_ext [31:0] $end
$var reg 32 K! acc_next [31:0] $end
$upscope $end
$scope module ROW[3].COL[2].u_mac $end
$var wire 1 * clk $end
$var wire 1 + rst $end
$var wire 1 L! en $end
$var wire 8 M! a [15:8] $end
$var wire 8 N! b [15:8] $end
$var reg 32 O! acc_out [63:32] $end
$var reg 16 P! mult_out [31:16] $end
$var reg 16 Q! activity_count [31:16] $end
$var reg 16 R! mult [15:0] $end
$var reg 32 S! mult_ext [31:0] $end
$var reg 32 T! acc_next [31:0] $end
$upscope $end
$scope module ROW[3].COL[3].u_mac $end
$var wire 1 * clk $end
$var wire 1 + rst $end
$var wire 1 U! en $end
$var wire 8 V! a [7:0] $end
$var wire 8 W! b [7:0] $end
$var reg 32 X! acc_out [31:0] $end
$var reg 16 Y! mult_out [15:0] $end
$var reg 16 Z! activity_count [15:0] $end
$var reg 16 [! mult [15:0] $end
$var reg 32 \! mult_ext [31:0] $end
$var reg 32 ]! acc_next [31:0] $end
$upscope $end
$upscope $end
$scope task clear_all $end
$upscope $end
$scope task reset_dut $end
$upscope $end
$scope task checkerboard_load $end
$var integer 32 ^! cycles [31:0] $end
$upscope $end
$scope task print_activity_counts $end
$upscope $end
$upscope $end
$enddefinitions $end

#0
$dumpvars
1!
b0 !!
0"
b0 "!
b0 #
b0 #!
b100 $
b0 $!
b100 %
b0 %!
bx &
b0 &!
bx '
b0 '!
bx (
0(!
bx )
b0 )!
1*
b0 *!
1+
b0 +!
0,
b0 ,!
b0 -
b0 -!
b0 .
b0 .!
b0 /
b0 /!
b0 0
b0 0!
b0 1
01!
b0 2
b0 2!
b0 3
b0 3!
b0 4
b0 4!
05
b0 5!
b0 6
b0 6!
b0 7
b0 7!
b0 8
b0 8!
b0 9
b0 9!
b0 :
0:!
b0 ;
b0 ;!
b0 <
b0 <!
b0 =
b0 =!
0>
b0 >!
b0 ?
b0 ?!
b0 @
b0 @!
b0 A
b0 A!
b0 B
b0 B!
b0 C
0C!
b0 D
b0 D!
b0 E
b0 E!
b0 F
b0 F!
0G
b0 G!
b0 H
b0 H!
b0 I
b0 I!
b0 J
b0 J!
b0 K
b0 K!
b0 L
0L!
b0 M
b0 M!
b0 N
b0 N!
b0 O
b0 O!
0P
b0 P!
b0 Q
b0 Q!
b0 R
b0 R!
b0 S
b0 S!
b0 T
b0 T!
b0 U
0U!
b0 V
b0 V!
b0 W
b0 W!
b0 X
b0 X!
0Y
b0 Y!
b0 Z
b0 Z!
b0 [
b0 [!
b0 \
b0 \!
b0 ]
b0 ]!
b0 ^
bx ^!
b0 _
b0 `
b0 a
0b
b0 c
b0 d
b0 e
b0 f
b0 g
b0 h
b0 i
b0 j
0k
b0 l
b0 m
b0 n
b0 o
b0 p
b0 q
b0 r
b0 s
0t
b0 u
b0 v
b0 w
b0 x
b0 y
b0 z
b0 {
b0 |
0}
b0 ~
$end

#25000
b100 !!
b10 #
b10000 #!
b100 $
b100 %
b10000 %!
b0 &
b10000 &!
b10000 '!
1(!
b100 )!
b101 *!
0+
1,
b10100 ,!
b10 -
b1 -!
b11 .
b10100 .!
b10100 /!
b110 0
b10100 0!
b1 1
01!
b110 2
b100 2!
b110 3
b110 3!
b110 4
05
b11000 5!
b10 6
b100 7
b11000 7!
b11000 8!
b1000 9
b11000 9!
0:!
b1000 ;
b101 ;!
b1000 <
b11 <!
b1000 =
1>
b1111 >!
b10 ?
b101 @
b1111 @!
b1111 A!
b1010 B
b1111 B!
b1 C
1C!
b1010 D
b101 D!
b1010 E
b100 E!
b1010 F
0G
b10100 G!
b10 H
b1 H!
b110 I
b10100 I!
b10100 J!
b1100 K
b10100 K!
0L!
b1100 M
b101 M!
b1100 N
b101 N!
b1100 O
0P
b11001 P!
b11 Q
b11 R
b11001 R!
b11001 S!
b1001 T
b11001 T!
1U!
b1001 V
b101 V!
b1001 W
b110 W!
b1001 X
1Y
b11110 Y!
b11 Z
b1 Z!
b100 [
b11110 [!
b11110 \!
b1100 ]
b11110 ]!
b1 ^
b1010 ^!
b1100 _
b1100 `
b1100 a
0b
b11 c
b101 d
b1111 f
b1111 h
b1111 i
b1111 j
1k
b11 l
b110 m
b10010 o
b1 p
b10010 q
b10010 r
b10010 s
1t
b100 u
b11 v
b1100 x
b1 y
b1100 z
b1100 {
b1100 |
0}
b100 ~

#30000
0!
0*

#35000
1!
b100 $
b100 %
b1 &
1*
b10100 +!
b10 -!
b110 /
b101000 0!
b10 1
b1100 4
b1010 A
b10 C
b10100 F
b10100 F!
b10 H!
b101000 K!
b11110 X!
b10 Z!
b1100 \
b111100 ]!
b10 ^
b11000 a
b10010 n
b10 p
b100100 s
b1100 w
b10 y
b11000 |

#40000
0!
0*

#45000
1!
b100 $
b100 %
b10 &
1*
b101000 +!
b11 -!
b1100 /
b111100 0!
b11 1
b10010 4
b10100 A
b11 C
b11110 F
b101000 F!
b11 H!
b111100 K!
b111100 X!
b11 Z!
b11000 \
b1011010 ]!
b11 ^
b100100 a
b100100 n
b11 p
b110110 s
b11000 w
b11 y
b100100 |

#50000
0!
0*

#55000
1!
b100 $
b100 %
b11 &
1*
b111100 +!
b100 -!
b10010 /
b1010000 0!
b100 1
b11000 4
b11110 A
b100 C
b101000 F
b111100 F!
b100 H!
b1010000 K!
b1011010 X!
b100 Z!
b100100 \
b1111000 ]!
b100 ^
b110000 a
b110110 n
b100 p
b1001000 s
b100100 w
b100 y
b110000 |

#60000
0!
0*

#65000
1!
b100 $
b100 %
b100 &
1*
b1010000 +!
b101 -!
b11000 /
b1100100 0!
b101 1
b11110 4
b101000 A
b101 C
b110010 F
b1010000 F!
b101 H!
b1100100 K!
b1111000 X!
b101 Z!
b110000 \
b10010110 ]!
b101 ^
b111100 a
b1001000 n
b101 p
b1011010 s
b110000 w
b101 y
b111100 |

#70000
0!
0*

#75000
1!
b100 $
b100 %
b101 &
1*
b1100100 +!
b110 -!
b11110 /
b1111000 0!
b110 1
b100100 4
b110010 A
b110 C
b111100 F
b1100100 F!
b110 H!
b1111000 K!
b10010110 X!
b110 Z!
b111100 \
b10110100 ]!
b110 ^
b1001000 a
b1011010 n
b110 p
b1101100 s
b111100 w
b110 y
b1001000 |

#80000
0!
0*

#85000
1!
b100 $
b100 %
b110 &
1*
b1111000 +!
b111 -!
b100100 /
b10001100 0!
b111 1
b101010 4
b111100 A
b111 C
b1000110 F
b1111000 F!
b111 H!
b10001100 K!
b10110100 X!
b111 Z!
b1001000 \
b11010010 ]!
b111 ^
b1010100 a
b1101100 n
b111 p
b1111110 s
b1001000 w
b111 y
b1010100 |

#90000
0!
0*

#95000
1!
b100 $
b100 %
b111 &
1*
b10001100 +!
b1000 -!
b101010 /
b10100000 0!
b1000 1
b110000 4
b1000110 A
b1000 C
b1010000 F
b10001100 F!
b1000 H!
b10100000 K!
b11010010 X!
b1000 Z!
b1010100 \
b11110000 ]!
b1000 ^
b1100000 a
b1111110 n
b1000 p
b10010000 s
b1010100 w
b1000 y
b1100000 |

#100000
0!
0*

#105000
1!
b100 $
b100 %
b1000 &
1*
b10100000 +!
b1001 -!
b110000 /
b10110100 0!
b1001 1
b110110 4
b1010000 A
b1001 C
b1011010 F
b10100000 F!
b1001 H!
b10110100 K!
b11110000 X!
b1001 Z!
b1100000 \
b100001110 ]!
b1001 ^
b1101100 a
b10010000 n
b1001 p
b10100010 s
b1100000 w
b1001 y
b1101100 |

#110000
0!
0*

#115000
1!
b100 $
b100 %
b1001 &
1*
b10110100 +!
b1010 -!
b110110 /
b11001000 0!
b1010 1
b111100 4
b1011010 A
b1010 C
b1100100 F
b10110100 F!
b1010 H!
b11001000 K!
b100001110 X!
b1010 Z!
b1101100 \
b100101100 ]!
b1010 ^
b1111000 a
b10100010 n
b1010 p
b10110100 s
b1101100 w
b1010 y
b1111000 |

#120000
0!
0*

#125000
1!
b0 !!
b0 #!
b100 $
b100 %
b0 %!
b1010 &
b0 &!
b0 '!
0(!
b0 )!
1*
b0 *!
0,
b0 ,!
b0 -
b0 .
b0 .!
b0 /!
b0 0
b10110100 0!
01!
b0 2
b0 2!
b0 3
b0 3!
b110110 4
05
b0 5!
b0 6
b0 7
b0 7!
b0 8!
b0 9
b0 9!
0:!
b0 ;
b0 ;!
b0 <
b0 <!
b0 =
0>
b0 >!
b0 ?
b0 @
b0 @!
b0 A!
b0 B
b0 B!
0C!
b0 D
b0 D!
b0 E
b0 E!
b1011010 F
0G
b0 G!
b0 H
b0 I
b0 I!
b0 J!
b0 K
b10110100 K!
0L!
b0 M
b0 M!
b0 N
b0 N!
b0 O
0P
b0 P!
b0 Q
b0 R
b0 R!
b0 S!
b0 T
b0 T!
0U!
b0 V
b0 V!
b0 W
b0 W!
b0 X
0Y
b0 Y!
b0 Z
b0 [
b0 [!
b0 \!
b0 ]
b100001110 ]!
b0 _
b0 `
b1101100 a
0b
b0 c
b0 d
b0 f
b0 h
b0 i
b0 j
0k
b0 l
b0 m
b0 o
b0 q
b0 r
b10100010 s
0t
b0 u
b0 v
b0 x
b0 z
b0 {
b1101100 |
0}
b0 ~

#130000
0!
0*

#135000
1!
1*

#140000
0!
0*

#145000
1!
1*

#150000
0!
0*

#155000
1!
1*

#160000
0!
0*

#165000
1!
1*

#170000
0!
0*

#175000
1!
1*
$dumpoff
x*
x+
bx -
bx 6
bx ?
bx H
bx Q
bx Z
bx c
bx l
bx u
bx ~
bx )!
bx 2!
bx ;!
bx D!
bx M!
bx V!
bx .
bx 7
bx @
bx I
bx R
bx [
bx d
bx m
bx v
bx !!
bx *!
bx 3!
bx <!
bx E!
bx N!
bx W!
x,
x5
x>
xG
xP
xY
xb
xk
xt
x}
x(!
x1!
x:!
xC!
xL!
xU!
x!
x"
bx /
bx 8
bx A
bx J
bx S
bx \
bx e
bx n
bx w
bx "!
bx +!
bx 4!
bx =!
bx F!
bx O!
bx X!
bx 0
bx 9
bx B
bx K
bx T
bx ]
bx f
bx o
bx x
bx #!
bx ,!
bx 5!
bx >!
bx G!
bx P!
bx Y!
bx 1
bx :
bx C
bx L
bx U
bx ^
bx g
bx p
bx y
bx $!
bx -!
bx 6!
bx ?!
bx H!
bx Q!
bx Z!
bx #
bx $
bx %
bx &
bx '
bx (
bx )
bx 2
bx 3
bx 4
bx ;
bx <
bx =
bx D
bx E
bx F
bx M
bx N
bx O
bx V
bx W
bx X
bx _
bx `
bx a
bx h
bx i
bx j
bx q
bx r
bx s
bx z
bx {
bx |
bx %!
bx &!
bx '!
bx .!
bx /!
bx 0!
bx 7!
bx 8!
bx 9!
bx @!
bx A!
bx B!
bx I!
bx J!
bx K!
bx R!
bx S!
bx T!
bx [!
bx \!
bx ]!
bx ^!
$end

