thermal_aware_mac_array/thermal_aware_mac_array.sim/sim_1/behav/xsim/mac_array_4x4.vcd
$date
   Sun Apr  5 13:29:47 2026
$end

$version
  2025.2
  $dumpfile ("mac_array_4x4.vcd") 
$end

$timescale
  1ps
$end

$scope module tb_mac_array $end
$var reg 1 ! clk $end
$var reg 1 " rst $end
$var integer 32 # i [31:0] $end
$var integer 32 $ j [31:0] $end
$var integer 32 % c [31:0] $end
$var integer 32 & hot_i [31:0] $end
$var integer 32 ' hot_j [31:0] $end
$var integer 32 ( HOT_N [31:0] $end
$scope module dut $end
$var wire 1 ) clk $end
$var wire 1 * rst $end
$scope module ROW[0].COL[0].u_mac $end
$var wire 1 ) clk $end
$var wire 1 * rst $end
$var wire 1 + en $end
$var wire 8 , a [127:120] $end
$var wire 8 - b [127:120] $end
$var reg 32 . acc_out [511:480] $end
$var reg 16 / mult [15:0] $end
$upscope $end
$scope module ROW[0].COL[1].u_mac $end
$var wire 1 ) clk $end
$var wire 1 * rst $end
$var wire 1 0 en $end
$var wire 8 1 a [119:112] $end
$var wire 8 2 b [119:112] $end
$var reg 32 3 acc_out [479:448] $end
$var reg 16 4 mult [15:0] $end
$upscope $end
$scope module ROW[0].COL[2].u_mac $end
$var wire 1 ) clk $end
$var wire 1 * rst $end
$var wire 1 5 en $end
$var wire 8 6 a [111:104] $end
$var wire 8 7 b [111:104] $end
$var reg 32 8 acc_out [447:416] $end
$var reg 16 9 mult [15:0] $end
$upscope $end
$scope module ROW[0].COL[3].u_mac $end
$var wire 1 ) clk $end
$var wire 1 * rst $end
$var wire 1 : en $end
$var wire 8 ; a [103:96] $end
$var wire 8 < b [103:96] $end
$var reg 32 = acc_out [415:384] $end
$var reg 16 > mult [15:0] $end
$upscope $end
$scope module ROW[1].COL[0].u_mac $end
$var wire 1 ) clk $end
$var wire 1 * rst $end
$var wire 1 ? en $end
$var wire 8 @ a [95:88] $end
$var wire 8 A b [95:88] $end
$var reg 32 B acc_out [383:352] $end
$var reg 16 C mult [15:0] $end
$upscope $end
$scope module ROW[1].COL[1].u_mac $end
$var wire 1 ) clk $end
$var wire 1 * rst $end
$var wire 1 D en $end
$var wire 8 E a [87:80] $end
$var wire 8 F b [87:80] $end
$var reg 32 G acc_out [351:320] $end
$var reg 16 H mult [15:0] $end
$upscope $end
$scope module ROW[1].COL[2].u_mac $end
$var wire 1 ) clk $end
$var wire 1 * rst $end
$var wire 1 I en $end
$var wire 8 J a [79:72] $end
$var wire 8 K b [79:72] $end
$var reg 32 L acc_out [319:288] $end
$var reg 16 M mult [15:0] $end
$upscope $end
$scope module ROW[1].COL[3].u_mac $end
$var wire 1 ) clk $end
$var wire 1 * rst $end
$var wire 1 N en $end
$var wire 8 O a [71:64] $end
$var wire 8 P b [71:64] $end
$var reg 32 Q acc_out [287:256] $end
$var reg 16 R mult [15:0] $end
$upscope $end
$scope module ROW[2].COL[0].u_mac $end
$var wire 1 ) clk $end
$var wire 1 * rst $end
$var wire 1 S en $end
$var wire 8 T a [63:56] $end
$var wire 8 U b [63:56] $end
$var reg 32 V acc_out [255:224] $end
$var reg 16 W mult [15:0] $end
$upscope $end
$scope module ROW[2].COL[1].u_mac $end
$var wire 1 ) clk $end
$var wire 1 * rst $end
$var wire 1 X en $end
$var wire 8 Y a [55:48] $end
$var wire 8 Z b [55:48] $end
$var reg 32 [ acc_out [223:192] $end
$var reg 16 \ mult [15:0] $end
$upscope $end
$scope module ROW[2].COL[2].u_mac $end
$var wire 1 ) clk $end
$var wire 1 * rst $end
$var wire 1 ] en $end
$var wire 8 ^ a [47:40] $end
$var wire 8 _ b [47:40] $end
$var reg 32 ` acc_out [191:160] $end
$var reg 16 a mult [15:0] $end
$upscope $end
$scope module ROW[2].COL[3].u_mac $end
$var wire 1 ) clk $end
$var wire 1 * rst $end
$var wire 1 b en $end
$var wire 8 c a [39:32] $end
$var wire 8 d b [39:32] $end
$var reg 32 e acc_out [159:128] $end
$var reg 16 f mult [15:0] $end
$upscope $end
$scope module ROW[3].COL[0].u_mac $end
$var wire 1 ) clk $end
$var wire 1 * rst $end
$var wire 1 g en $end
$var wire 8 h a [31:24] $end
$var wire 8 i b [31:24] $end
$var reg 32 j acc_out [127:96] $end
$var reg 16 k mult [15:0] $end
$upscope $end
$scope module ROW[3].COL[1].u_mac $end
$var wire 1 ) clk $end
$var wire 1 * rst $end
$var wire 1 l en $end
$var wire 8 m a [23:16] $end
$var wire 8 n b [23:16] $end
$var reg 32 o acc_out [95:64] $end
$var reg 16 p mult [15:0] $end
$upscope $end
$scope module ROW[3].COL[2].u_mac $end
$var wire 1 ) clk $end
$var wire 1 * rst $end
$var wire 1 q en $end
$var wire 8 r a [15:8] $end
$var wire 8 s b [15:8] $end
$var reg 32 t acc_out [63:32] $end
$var reg 16 u mult [15:0] $end
$upscope $end
$scope module ROW[3].COL[3].u_mac $end
$var wire 1 ) clk $end
$var wire 1 * rst $end
$var wire 1 v en $end
$var wire 8 w a [7:0] $end
$var wire 8 x b [7:0] $end
$var reg 32 y acc_out [31:0] $end
$var reg 16 z mult [15:0] $end
$upscope $end
$upscope $end
$scope task clear_all $end
$upscope $end
$scope task reset_dut $end
$upscope $end
$scope task uniform_load $end
$var integer 32 { cycles [31:0] $end
$upscope $end
$scope task hotspot_load $end
$var integer 32 | cycles [31:0] $end
$upscope $end
$scope task checkerboard_load $end
$var integer 32 } cycles [31:0] $end
$upscope $end
$upscope $end
$enddefinitions $end

#0
$dumpvars
0!
1"
b100 #
b100 $
bx %
bx &
bx '
bx (
0)
1*
0+
b0 ,
b0 -
b0 .
b0 /
00
b0 1
b0 2
b0 3
b0 4
05
b0 6
b0 7
b0 8
b0 9
0:
b0 ;
b0 <
b0 =
b0 >
0?
b0 @
b0 A
b0 B
b0 C
0D
b0 E
b0 F
b0 G
b0 H
0I
b0 J
b0 K
b0 L
b0 M
0N
b0 O
b0 P
b0 Q
b0 R
0S
b0 T
b0 U
b0 V
b0 W
0X
b0 Y
b0 Z
b0 [
b0 \
0]
b0 ^
b0 _
b0 `
b0 a
0b
b0 c
b0 d
b0 e
b0 f
0g
b0 h
b0 i
b0 j
b0 k
0l
b0 m
b0 n
b0 o
b0 p
0q
b0 r
b0 s
b0 t
b0 u
0v
b0 w
b0 x
b0 y
b0 z
bx {
bx |
bx }
$end

#5000
1!
1)

#10000
0!
0)

#15000
1!
0"
b100 #
b100 $
b0 %
1)
0*
1+
b1 ,
b1 -
b1 /
10
b10 1
b1 2
b10 4
15
b11 6
b1 7
b11 9
1:
b100 ;
b1 <
b100 >
1?
b10 @
b10 A
b100 C
1D
b11 E
b10 F
b110 H
1I
b100 J
b10 K
b1000 M
1N
b101 O
b10 P
b1010 R
1S
b11 T
b11 U
b1001 W
1X
b100 Y
b11 Z
b1100 \
1]
b101 ^
b11 _
b1111 a
1b
b110 c
b11 d
b10010 f
1g
b100 h
b100 i
b10000 k
1l
b101 m
b100 n
b10100 p
1q
b110 r
b100 s
b11000 u
1v
b111 w
b100 x
b11100 z
b1010 {

#20000
0!
0)

#25000
1!
b100 #
b100 $
b1 %
1)
b1 .
b10 3
b11 8
b100 =
b100 B
b110 G
b1000 L
b1010 Q
b1001 V
b1100 [
b1111 `
b10010 e
b10000 j
b10100 o
b11000 t
b11100 y

#30000
0!
0)

#35000
1!
b100 #
b100 $
b10 %
1)
b10 .
b100 3
b110 8
b1000 =
b1000 B
b1100 G
b10000 L
b10100 Q
b10010 V
b11000 [
b11110 `
b100100 e
b100000 j
b101000 o
b110000 t
b111000 y

#40000
0!
0)

#45000
1!
b100 #
b100 $
b11 %
1)
b11 .
b110 3
b1001 8
b1100 =
b1100 B
b10010 G
b11000 L
b11110 Q
b11011 V
b100100 [
b101101 `
b110110 e
b110000 j
b111100 o
b1001000 t
b1010100 y

#50000
0!
0)

#55000
1!
b100 #
b100 $
b100 %
1)
b100 .
b1000 3
b1100 8
b10000 =
b10000 B
b11000 G
b100000 L
b101000 Q
b100100 V
b110000 [
b111100 `
b1001000 e
b1000000 j
b1010000 o
b1100000 t
b1110000 y

#60000
0!
0)

#65000
1!
b100 #
b100 $
b101 %
1)
b101 .
b1010 3
b1111 8
b10100 =
b10100 B
b11110 G
b101000 L
b110010 Q
b101101 V
b111100 [
b1001011 `
b1011010 e
b1010000 j
b1100100 o
b1111000 t
b10001100 y

#70000
0!
0)

#75000
1!
b100 #
b100 $
b110 %
1)
b110 .
b1100 3
b10010 8
b11000 =
b11000 B
b100100 G
b110000 L
b111100 Q
b110110 V
b1001000 [
b1011010 `
b1101100 e
b1100000 j
b1111000 o
b10010000 t
b10101000 y

#80000
0!
0)

#85000
1!
b100 #
b100 $
b111 %
1)
b111 .
b1110 3
b10101 8
b11100 =
b11100 B
b101010 G
b111000 L
b1000110 Q
b111111 V
b1010100 [
b1101001 `
b1111110 e
b1110000 j
b10001100 o
b10101000 t
b11000100 y

#90000
0!
0)

#95000
1!
b100 #
b100 $
b1000 %
1)
b1000 .
b10000 3
b11000 8
b100000 =
b100000 B
b110000 G
b1000000 L
b1010000 Q
b1001000 V
b1100000 [
b1111000 `
b10010000 e
b10000000 j
b10100000 o
b11000000 t
b11100000 y

#100000
0!
0)

#105000
1!
b100 #
b100 $
b1001 %
1)
b1001 .
b10010 3
b11011 8
b100100 =
b100100 B
b110110 G
b1001000 L
b1011010 Q
b1010001 V
b1101100 [
b10000111 `
b10100010 e
b10010000 j
b10110100 o
b11011000 t
b11111100 y

#110000
0!
0)

#115000
1!
1"
b100 #
b100 $
b1010 %
1)
1*
0+
b0 ,
b0 -
b0 .
b0 /
00
b0 1
b0 2
b0 3
b0 4
05
b0 6
b0 7
b0 8
b0 9
0:
b0 ;
b0 <
b0 =
b0 >
0?
b0 @
b0 A
b0 B
b0 C
0D
b0 E
b0 F
b0 G
b0 H
0I
b0 J
b0 K
b0 L
b0 M
0N
b0 O
b0 P
b0 Q
b0 R
0S
b0 T
b0 U
b0 V
b0 W
0X
b0 Y
b0 Z
b0 [
b0 \
0]
b0 ^
b0 _
b0 `
b0 a
0b
b0 c
b0 d
b0 e
b0 f
0g
b0 h
b0 i
b0 j
b0 k
0l
b0 m
b0 n
b0 o
b0 p
0q
b0 r
b0 s
b0 t
b0 u
0v
b0 w
b0 x
b0 y
b0 z

#120000
0!
0)

#125000
1!
1)

#130000
0!
0)

#135000
1!
0"
b100 #
b100 $
b0 %
b10 &
b10 '
b10 (
1)
0*
1+
b10 ,
b10 -
b100 /
10
b11 1
b10 2
b110 4
05
b0 6
b0 7
0:
b0 ;
b0 <
1?
b11 @
b11 A
b1001 C
1D
b100 E
b11 F
b1100 H
0I
b0 J
b0 K
0N
b0 O
b0 P
0S
b0 T
b0 U
0X
b0 Y
b0 Z
0]
b0 ^
b0 _
0b
b0 c
b0 d
0g
b0 h
b0 i
0l
b0 m
b0 n
0q
b0 r
b0 s
0v
b0 w
b0 x
b1010 |

#140000
0!
0)

#145000
1!
b100 #
b100 $
b1 %
b10 &
b10 '
1)
b100 .
b110 3
b1001 B
b1100 G

#150000
0!
0)

#155000
1!
b100 #
b100 $
b10 %
b10 &
b10 '
1)
b1000 .
b1100 3
b10010 B
b11000 G

#160000
0!
0)

#165000
1!
b100 #
b100 $
b11 %
b10 &
b10 '
1)
b1100 .
b10010 3
b11011 B
b100100 G

#170000
0!
0)

#175000
1!
b100 #
b100 $
b100 %
b10 &
b10 '
1)
b10000 .
b11000 3
b100100 B
b110000 G

#180000
0!
0)

#185000
1!
b100 #
b100 $
b101 %
b10 &
b10 '
1)
b10100 .
b11110 3
b101101 B
b111100 G

#190000
0!
0)

#195000
1!
b100 #
b100 $
b110 %
b10 &
b10 '
1)
b11000 .
b100100 3
b110110 B
b1001000 G

#200000
0!
0)

#205000
1!
b100 #
b100 $
b111 %
b10 &
b10 '
1)
b11100 .
b101010 3
b111111 B
b1010100 G

#210000
0!
0)

#215000
1!
b100 #
b100 $
b1000 %
b10 &
b10 '
1)
b100000 .
b110000 3
b1001000 B
b1100000 G

#220000
0!
0)

#225000
1!
b100 #
b100 $
b1001 %
b10 &
b10 '
1)
b100100 .
b110110 3
b1010001 B
b1101100 G

#230000
0!
0)

#235000
1!
1"
b100 #
b100 $
b1010 %
1)
1*
0+
b0 ,
b0 -
b0 .
b0 /
00
b0 1
b0 2
b0 3
b0 4
05
b0 6
b0 7
0:
b0 ;
b0 <
0?
b0 @
b0 A
b0 B
b0 C
0D
b0 E
b0 F
b0 G
b0 H
0I
b0 J
b0 K
0N
b0 O
b0 P
0S
b0 T
b0 U
0X
b0 Y
b0 Z
0]
b0 ^
b0 _
0b
b0 c
b0 d
0g
b0 h
b0 i
0l
b0 m
b0 n
0q
b0 r
b0 s
0v
b0 w
b0 x

#240000
0!
0)

#245000
1!
1)

#250000
0!
0)

#255000
1!
0"
b100 #
b100 $
b0 %
1)
0*
1+
b10 ,
b11 -
b110 /
00
b10 1
b100 2
b1000 4
15
b10 6
b101 7
b1010 9
0:
b10 ;
b110 <
b1100 >
0?
b11 @
b11 A
b1001 C
1D
b11 E
b100 F
b1100 H
0I
b11 J
b101 K
b1111 M
1N
b11 O
b110 P
b10010 R
1S
b100 T
b11 U
b1100 W
0X
b100 Y
b100 Z
b10000 \
1]
b100 ^
b101 _
b10100 a
0b
b100 c
b110 d
b11000 f
0g
b101 h
b11 i
b1111 k
1l
b101 m
b100 n
b10100 p
0q
b101 r
b101 s
b11001 u
1v
b101 w
b110 x
b11110 z
b1010 }

#260000
0!
0)

#265000
1!
b100 #
b100 $
b1 %
1)
b110 .
b1010 8
b1100 G
b10010 Q
b1100 V
b10100 `
b10100 o
b11110 y

#270000
0!
0)

#275000
1!
b100 #
b100 $
b10 %
1)
b1100 .
b10100 8
b11000 G
b100100 Q
b11000 V
b101000 `
b101000 o
b111100 y

#280000
0!
0)

#285000
1!
b100 #
b100 $
b11 %
1)
b10010 .
b11110 8
b100100 G
b110110 Q
b100100 V
b111100 `
b111100 o
b1011010 y

#290000
0!
0)

#295000
1!
b100 #
b100 $
b100 %
1)
b11000 .
b101000 8
b110000 G
b1001000 Q
b110000 V
b1010000 `
b1010000 o
b1111000 y

#300000
0!
0)

#305000
1!
b100 #
b100 $
b101 %
1)
b11110 .
b110010 8
b111100 G
b1011010 Q
b111100 V
b1100100 `
b1100100 o
b10010110 y

#310000
0!
0)

#315000
1!
b100 #
b100 $
b110 %
1)
b100100 .
b111100 8
b1001000 G
b1101100 Q
b1001000 V
b1111000 `
b1111000 o
b10110100 y

#320000
0!
0)

#325000
1!
b100 #
b100 $
b111 %
1)
b101010 .
b1000110 8
b1010100 G
b1111110 Q
b1010100 V
b10001100 `
b10001100 o
b11010010 y

#330000
0!
0)

#335000
1!
b100 #
b100 $
b1000 %
1)
b110000 .
b1010000 8
b1100000 G
b10010000 Q
b1100000 V
b10100000 `
b10100000 o
b11110000 y

#340000
0!
0)

#345000
1!
b100 #
b100 $
b1001 %
1)
b110110 .
b1011010 8
b1101100 G
b10100010 Q
b1101100 V
b10110100 `
b10110100 o
b100001110 y

#350000
0!
0)

#355000
1!
b100 #
b100 $
b1010 %
1)
0+
b0 ,
b0 -
b0 /
00
b0 1
b0 2
b0 4
05
b0 6
b0 7
b0 9
0:
b0 ;
b0 <
b0 >
0?
b0 @
b0 A
b0 C
0D
b0 E
b0 F
b0 H
0I
b0 J
b0 K
b0 M
0N
b0 O
b0 P
b0 R
0S
b0 T
b0 U
b0 W
0X
b0 Y
b0 Z
b0 \
0]
b0 ^
b0 _
b0 a
0b
b0 c
b0 d
b0 f
0g
b0 h
b0 i
b0 k
0l
b0 m
b0 n
b0 p
0q
b0 r
b0 s
b0 u
0v
b0 w
b0 x
b0 z

#360000
0!
0)

#365000
1!
1)

#370000
0!
0)

#375000
1!
1)

#380000
0!
0)

#385000
1!
1)

#390000
0!
0)

#395000
1!
1)

#400000
0!
0)

#405000
1!
1)
$dumpoff
x)
x*
bx ,
bx 1
bx 6
bx ;
bx @
bx E
bx J
bx O
bx T
bx Y
bx ^
bx c
bx h
bx m
bx r
bx w
bx -
bx 2
bx 7
bx <
bx A
bx F
bx K
bx P
bx U
bx Z
bx _
bx d
bx i
bx n
bx s
bx x
x+
x0
x5
x:
x?
xD
xI
xN
xS
xX
x]
xb
xg
xl
xq
xv
x!
x"
bx .
bx 3
bx 8
bx =
bx B
bx G
bx L
bx Q
bx V
bx [
bx `
bx e
bx j
bx o
bx t
bx y
bx #
bx $
bx %
bx &
bx '
bx (
bx /
bx 4
bx 9
bx >
bx C
bx H
bx M
bx R
bx W
bx \
bx a
bx f
bx k
bx p
bx u
bx z
bx {
bx |
bx }
$end

