thermal_aware_mac_array/thermal_aware_mac_array.sim/sim_1/behav/xsim/mac_array_2x2.vcd
$date
   Sun Apr  5 13:26:29 2026
$end

$version
  2025.2
  $dumpfile ("mac_array_2x2.vcd") 
$end

$timescale
  1ps
$end

$scope module tb_mac_array $end
$var reg 1 ! clk $end
$var reg 1 " rst $end
$var integer 32 # i [31:0] $end
$var integer 32 $ j [31:0] $end
$var integer 32 % c [31:0] $end
$var integer 32 & hot_i [31:0] $end
$var integer 32 ' hot_j [31:0] $end
$var integer 32 ( HOT_N [31:0] $end
$scope module dut $end
$var wire 1 ) clk $end
$var wire 1 * rst $end
$scope module ROW[0].COL[0].u_mac $end
$var wire 1 ) clk $end
$var wire 1 * rst $end
$var wire 1 + en $end
$var wire 8 , a [31:24] $end
$var wire 8 - b [31:24] $end
$var reg 32 . acc_out [127:96] $end
$var reg 16 / mult [15:0] $end
$upscope $end
$scope module ROW[0].COL[1].u_mac $end
$var wire 1 ) clk $end
$var wire 1 * rst $end
$var wire 1 0 en $end
$var wire 8 1 a [23:16] $end
$var wire 8 2 b [23:16] $end
$var reg 32 3 acc_out [95:64] $end
$var reg 16 4 mult [15:0] $end
$upscope $end
$scope module ROW[1].COL[0].u_mac $end
$var wire 1 ) clk $end
$var wire 1 * rst $end
$var wire 1 5 en $end
$var wire 8 6 a [15:8] $end
$var wire 8 7 b [15:8] $end
$var reg 32 8 acc_out [63:32] $end
$var reg 16 9 mult [15:0] $end
$upscope $end
$scope module ROW[1].COL[1].u_mac $end
$var wire 1 ) clk $end
$var wire 1 * rst $end
$var wire 1 : en $end
$var wire 8 ; a [7:0] $end
$var wire 8 < b [7:0] $end
$var reg 32 = acc_out [31:0] $end
$var reg 16 > mult [15:0] $end
$upscope $end
$upscope $end
$scope task clear_all $end
$upscope $end
$scope task reset_dut $end
$upscope $end
$scope task uniform_load $end
$var integer 32 ? cycles [31:0] $end
$upscope $end
$scope task hotspot_load $end
$var integer 32 @ cycles [31:0] $end
$upscope $end
$scope task checkerboard_load $end
$var integer 32 A cycles [31:0] $end
$upscope $end
$upscope $end
$enddefinitions $end

#0
$dumpvars
0!
1"
b10 #
b10 $
bx %
bx &
bx '
bx (
0)
1*
0+
b0 ,
b0 -
b0 .
b0 /
00
b0 1
b0 2
b0 3
b0 4
05
b0 6
b0 7
b0 8
b0 9
0:
b0 ;
b0 <
b0 =
b0 >
bx ?
bx @
bx A
$end

#5000
1!
1)

#10000
0!
0)

#15000
1!
0"
b10 #
b10 $
b0 %
1)
0*
1+
b1 ,
b1 -
b1 /
10
b10 1
b1 2
b10 4
15
b10 6
b10 7
b100 9
1:
b11 ;
b10 <
b110 >
b1010 ?

#20000
0!
0)

#25000
1!
b10 #
b10 $
b1 %
1)
b1 .
b10 3
b100 8
b110 =

#30000
0!
0)

#35000
1!
b10 #
b10 $
b10 %
1)
b10 .
b100 3
b1000 8
b1100 =

#40000
0!
0)

#45000
1!
b10 #
b10 $
b11 %
1)
b11 .
b110 3
b1100 8
b10010 =

#50000
0!
0)

#55000
1!
b10 #
b10 $
b100 %
1)
b100 .
b1000 3
b10000 8
b11000 =

#60000
0!
0)

#65000
1!
b10 #
b10 $
b101 %
1)
b101 .
b1010 3
b10100 8
b11110 =

#70000
0!
0)

#75000
1!
b10 #
b10 $
b110 %
1)
b110 .
b1100 3
b11000 8
b100100 =

#80000
0!
0)

#85000
1!
b10 #
b10 $
b111 %
1)
b111 .
b1110 3
b11100 8
b101010 =

#90000
0!
0)

#95000
1!
b10 #
b10 $
b1000 %
1)
b1000 .
b10000 3
b100000 8
b110000 =

#100000
0!
0)

#105000
1!
b10 #
b10 $
b1001 %
1)
b1001 .
b10010 3
b100100 8
b110110 =

#110000
0!
0)

#115000
1!
1"
b10 #
b10 $
b1010 %
1)
1*
0+
b0 ,
b0 -
b0 .
b0 /
00
b0 1
b0 2
b0 3
b0 4
05
b0 6
b0 7
b0 8
b0 9
0:
b0 ;
b0 <
b0 =
b0 >

#120000
0!
0)

#125000
1!
1)

#130000
0!
0)

#135000
1!
0"
b10 #
b10 $
b0 %
b1 &
b1 '
b1 (
1)
0*
1+
b10 ,
b10 -
b100 /
00
b0 1
b0 2
05
b0 6
b0 7
0:
b0 ;
b0 <
b1010 @

#140000
0!
0)

#145000
1!
b10 #
b10 $
b1 %
b1 &
b1 '
1)
b100 .

#150000
0!
0)

#155000
1!
b10 #
b10 $
b10 %
b1 &
b1 '
1)
b1000 .

#160000
0!
0)

#165000
1!
b10 #
b10 $
b11 %
b1 &
b1 '
1)
b1100 .

#170000
0!
0)

#175000
1!
b10 #
b10 $
b100 %
b1 &
b1 '
1)
b10000 .

#180000
0!
0)

#185000
1!
b10 #
b10 $
b101 %
b1 &
b1 '
1)
b10100 .

#190000
0!
0)

#195000
1!
b10 #
b10 $
b110 %
b1 &
b1 '
1)
b11000 .

#200000
0!
0)

#205000
1!
b10 #
b10 $
b111 %
b1 &
b1 '
1)
b11100 .

#210000
0!
0)

#215000
1!
b10 #
b10 $
b1000 %
b1 &
b1 '
1)
b100000 .

#220000
0!
0)

#225000
1!
b10 #
b10 $
b1001 %
b1 &
b1 '
1)
b100100 .

#230000
0!
0)

#235000
1!
1"
b10 #
b10 $
b1010 %
1)
1*
0+
b0 ,
b0 -
b0 .
b0 /
00
b0 1
b0 2
05
b0 6
b0 7
0:
b0 ;
b0 <

#240000
0!
0)

#245000
1!
1)

#250000
0!
0)

#255000
1!
0"
b10 #
b10 $
b0 %
1)
0*
1+
b10 ,
b11 -
b110 /
00
b10 1
b100 2
b1000 4
05
b11 6
b11 7
b1001 9
1:
b11 ;
b100 <
b1100 >
b1010 A

#260000
0!
0)

#265000
1!
b10 #
b10 $
b1 %
1)
b110 .
b1100 =

#270000
0!
0)

#275000
1!
b10 #
b10 $
b10 %
1)
b1100 .
b11000 =

#280000
0!
0)

#285000
1!
b10 #
b10 $
b11 %
1)
b10010 .
b100100 =

#290000
0!
0)

#295000
1!
b10 #
b10 $
b100 %
1)
b11000 .
b110000 =

#300000
0!
0)

#305000
1!
b10 #
b10 $
b101 %
1)
b11110 .
b111100 =

#310000
0!
0)

#315000
1!
b10 #
b10 $
b110 %
1)
b100100 .
b1001000 =

#320000
0!
0)

#325000
1!
b10 #
b10 $
b111 %
1)
b101010 .
b1010100 =

#330000
0!
0)

#335000
1!
b10 #
b10 $
b1000 %
1)
b110000 .
b1100000 =

#340000
0!
0)

#345000
1!
b10 #
b10 $
b1001 %
1)
b110110 .
b1101100 =

#350000
0!
0)

#355000
1!
b10 #
b10 $
b1010 %
1)
0+
b0 ,
b0 -
b0 /
00
b0 1
b0 2
b0 4
05
b0 6
b0 7
b0 9
0:
b0 ;
b0 <
b0 >

#360000
0!
0)

#365000
1!
1)

#370000
0!
0)

#375000
1!
1)

#380000
0!
0)

#385000
1!
1)

#390000
0!
0)

#395000
1!
1)

#400000
0!
0)

#405000
1!
1)
$dumpoff
x)
x*
bx ,
bx 1
bx 6
bx ;
bx -
bx 2
bx 7
bx <
x+
x0
x5
x:
x!
x"
bx .
bx 3
bx 8
bx =
bx #
bx $
bx %
bx &
bx '
bx (
bx /
bx 4
bx 9
bx >
bx ?
bx @
bx A
$end

