thermal_aware_mac_array/thermal_aware_mac_array.sim/sim_1/behav/xsim/mac_array_checkerboard.vcd
$date
   Mon Apr  6 15:00:46 2026
$end

$version
  2025.2
  $dumpfile ("mac_array_checkerboard.vcd") 
$end

$timescale
  1ps
$end

$scope module tb_mac_array $end
$var reg 1 ! clk $end
$var reg 1 " rst $end
$var reg 2 # workload_id [1:0] $end
$var integer 32 $ i [31:0] $end
$var integer 32 % j [31:0] $end
$var integer 32 & c [31:0] $end
$var integer 32 ' hot_i [31:0] $end
$var integer 32 ( hot_j [31:0] $end
$var integer 32 ) HOT_N [31:0] $end
$scope module dut $end
$var wire 1 * clk $end
$var wire 1 + rst $end
$scope module ROW[0].COL[0].u_mac $end
$var wire 1 * clk $end
$var wire 1 + rst $end
$var wire 1 , en $end
$var wire 8 - a [31:24] $end
$var wire 8 . b [31:24] $end
$var reg 32 / acc_out [127:96] $end
$var reg 16 0 mult_out [63:48] $end
$var reg 16 1 activity_count [63:48] $end
$var reg 16 2 mult [15:0] $end
$var reg 32 3 mult_ext [31:0] $end
$var reg 32 4 acc_next [31:0] $end
$upscope $end
$scope module ROW[0].COL[1].u_mac $end
$var wire 1 * clk $end
$var wire 1 + rst $end
$var wire 1 5 en $end
$var wire 8 6 a [23:16] $end
$var wire 8 7 b [23:16] $end
$var reg 32 8 acc_out [95:64] $end
$var reg 16 9 mult_out [47:32] $end
$var reg 16 : activity_count [47:32] $end
$var reg 16 ; mult [15:0] $end
$var reg 32 < mult_ext [31:0] $end
$var reg 32 = acc_next [31:0] $end
$upscope $end
$scope module ROW[1].COL[0].u_mac $end
$var wire 1 * clk $end
$var wire 1 + rst $end
$var wire 1 > en $end
$var wire 8 ? a [15:8] $end
$var wire 8 @ b [15:8] $end
$var reg 32 A acc_out [63:32] $end
$var reg 16 B mult_out [31:16] $end
$var reg 16 C activity_count [31:16] $end
$var reg 16 D mult [15:0] $end
$var reg 32 E mult_ext [31:0] $end
$var reg 32 F acc_next [31:0] $end
$upscope $end
$scope module ROW[1].COL[1].u_mac $end
$var wire 1 * clk $end
$var wire 1 + rst $end
$var wire 1 G en $end
$var wire 8 H a [7:0] $end
$var wire 8 I b [7:0] $end
$var reg 32 J acc_out [31:0] $end
$var reg 16 K mult_out [15:0] $end
$var reg 16 L activity_count [15:0] $end
$var reg 16 M mult [15:0] $end
$var reg 32 N mult_ext [31:0] $end
$var reg 32 O acc_next [31:0] $end
$upscope $end
$upscope $end
$scope task clear_all $end
$upscope $end
$scope task reset_dut $end
$upscope $end
$scope task checkerboard_load $end
$var integer 32 P cycles [31:0] $end
$upscope $end
$scope task print_activity_counts $end
$upscope $end
$upscope $end
$enddefinitions $end

#0
$dumpvars
0!
1"
b0 #
b10 $
b10 %
bx &
bx '
bx (
bx )
0*
1+
0,
b0 -
b0 .
b0 /
b0 0
b0 1
b0 2
b0 3
b0 4
05
b0 6
b0 7
b0 8
b0 9
b0 :
b0 ;
b0 <
b0 =
0>
b0 ?
b0 @
b0 A
b0 B
b0 C
b0 D
b0 E
b0 F
0G
b0 H
b0 I
b0 J
b0 K
b0 L
b0 M
b0 N
b0 O
bx P
$end

#5000
1!
1*

#10000
0!
0*

#15000
1!
1*

#20000
0!
0*

#25000
1!
0"
b10 #
b10 $
b10 %
b0 &
1*
0+
1,
b10 -
b11 .
b110 0
b1 1
b110 2
b110 3
b110 4
05
b10 6
b100 7
b1000 9
b1000 ;
b1000 <
b1000 =
0>
b11 ?
b11 @
b1001 B
b1001 D
b1001 E
b1001 F
1G
b11 H
b100 I
b1100 K
b1 L
b1100 M
b1100 N
b1100 O
b1010 P

#30000
0!
0*

#35000
1!
b10 $
b10 %
b1 &
1*
b110 /
b10 1
b1100 4
b1100 J
b10 L
b11000 O

#40000
0!
0*

#45000
1!
b10 $
b10 %
b10 &
1*
b1100 /
b11 1
b10010 4
b11000 J
b11 L
b100100 O

#50000
0!
0*

#55000
1!
b10 $
b10 %
b11 &
1*
b10010 /
b100 1
b11000 4
b100100 J
b100 L
b110000 O

#60000
0!
0*

#65000
1!
b10 $
b10 %
b100 &
1*
b11000 /
b101 1
b11110 4
b110000 J
b101 L
b111100 O

#70000
0!
0*

#75000
1!
b10 $
b10 %
b101 &
1*
b11110 /
b110 1
b100100 4
b111100 J
b110 L
b1001000 O

#80000
0!
0*

#85000
1!
b10 $
b10 %
b110 &
1*
b100100 /
b111 1
b101010 4
b1001000 J
b111 L
b1010100 O

#90000
0!
0*

#95000
1!
b10 $
b10 %
b111 &
1*
b101010 /
b1000 1
b110000 4
b1010100 J
b1000 L
b1100000 O

#100000
0!
0*

#105000
1!
b10 $
b10 %
b1000 &
1*
b110000 /
b1001 1
b110110 4
b1100000 J
b1001 L
b1101100 O

#110000
0!
0*

#115000
1!
b10 $
b10 %
b1001 &
1*
b110110 /
b1010 1
b111100 4
b1101100 J
b1010 L
b1111000 O

#120000
0!
0*

#125000
1!
b10 $
b10 %
b1010 &
1*
0,
b0 -
b0 .
b0 0
b0 2
b0 3
b110110 4
05
b0 6
b0 7
b0 9
b0 ;
b0 <
b0 =
0>
b0 ?
b0 @
b0 B
b0 D
b0 E
b0 F
0G
b0 H
b0 I
b0 K
b0 M
b0 N
b1101100 O

#130000
0!
0*

#135000
1!
1*

#140000
0!
0*

#145000
1!
1*

#150000
0!
0*

#155000
1!
1*

#160000
0!
0*

#165000
1!
1*

#170000
0!
0*

#175000
1!
1*
$dumpoff
x*
x+
bx -
bx 6
bx ?
bx H
bx .
bx 7
bx @
bx I
x,
x5
x>
xG
x!
x"
bx /
bx 8
bx A
bx J
bx 0
bx 9
bx B
bx K
bx 1
bx :
bx C
bx L
bx #
bx $
bx %
bx &
bx '
bx (
bx )
bx 2
bx 3
bx 4
bx ;
bx <
bx =
bx D
bx E
bx F
bx M
bx N
bx O
bx P
$end

