thermal_aware_mac_array/thermal_aware_mac_array.sim/sim_1/behav/xsim/mac_array_hotspot_4x4.vcd
$date
   Mon Apr  6 17:05:27 2026
$end

$version
  2025.2
  $dumpfile ("mac_array_hotspot_4x4.vcd") 
$end

$timescale
  1ps
$end

$scope module tb_mac_array $end
$var reg 1 ! clk $end
$var reg 1 " rst $end
$var reg 2 # workload_id [1:0] $end
$var integer 32 $ i [31:0] $end
$var integer 32 % j [31:0] $end
$var integer 32 & c [31:0] $end
$var integer 32 ' hot_i [31:0] $end
$var integer 32 ( hot_j [31:0] $end
$var integer 32 ) HOT_N [31:0] $end
$scope module dut $end
$var wire 1 * clk $end
$var wire 1 + rst $end
$scope module ROW[0].COL[0].u_mac $end
$var wire 1 * clk $end
$var wire 1 + rst $end
$var wire 1 , en $end
$var wire 8 - a [127:120] $end
$var wire 8 . b [127:120] $end
$var reg 32 / acc_out [511:480] $end
$var reg 16 0 mult_out [255:240] $end
$var reg 16 1 activity_count [255:240] $end
$var reg 16 2 mult [15:0] $end
$var reg 32 3 mult_ext [31:0] $end
$var reg 32 4 acc_next [31:0] $end
$upscope $end
$scope module ROW[0].COL[1].u_mac $end
$var wire 1 * clk $end
$var wire 1 + rst $end
$var wire 1 5 en $end
$var wire 8 6 a [119:112] $end
$var wire 8 7 b [119:112] $end
$var reg 32 8 acc_out [479:448] $end
$var reg 16 9 mult_out [239:224] $end
$var reg 16 : activity_count [239:224] $end
$var reg 16 ; mult [15:0] $end
$var reg 32 < mult_ext [31:0] $end
$var reg 32 = acc_next [31:0] $end
$upscope $end
$scope module ROW[0].COL[2].u_mac $end
$var wire 1 * clk $end
$var wire 1 + rst $end
$var wire 1 > en $end
$var wire 8 ? a [111:104] $end
$var wire 8 @ b [111:104] $end
$var reg 32 A acc_out [447:416] $end
$var reg 16 B mult_out [223:208] $end
$var reg 16 C activity_count [223:208] $end
$var reg 16 D mult [15:0] $end
$var reg 32 E mult_ext [31:0] $end
$var reg 32 F acc_next [31:0] $end
$upscope $end
$scope module ROW[0].COL[3].u_mac $end
$var wire 1 * clk $end
$var wire 1 + rst $end
$var wire 1 G en $end
$var wire 8 H a [103:96] $end
$var wire 8 I b [103:96] $end
$var reg 32 J acc_out [415:384] $end
$var reg 16 K mult_out [207:192] $end
$var reg 16 L activity_count [207:192] $end
$var reg 16 M mult [15:0] $end
$var reg 32 N mult_ext [31:0] $end
$var reg 32 O acc_next [31:0] $end
$upscope $end
$scope module ROW[1].COL[0].u_mac $end
$var wire 1 * clk $end
$var wire 1 + rst $end
$var wire 1 P en $end
$var wire 8 Q a [95:88] $end
$var wire 8 R b [95:88] $end
$var reg 32 S acc_out [383:352] $end
$var reg 16 T mult_out [191:176] $end
$var reg 16 U activity_count [191:176] $end
$var reg 16 V mult [15:0] $end
$var reg 32 W mult_ext [31:0] $end
$var reg 32 X acc_next [31:0] $end
$upscope $end
$scope module ROW[1].COL[1].u_mac $end
$var wire 1 * clk $end
$var wire 1 + rst $end
$var wire 1 Y en $end
$var wire 8 Z a [87:80] $end
$var wire 8 [ b [87:80] $end
$var reg 32 \ acc_out [351:320] $end
$var reg 16 ] mult_out [175:160] $end
$var reg 16 ^ activity_count [175:160] $end
$var reg 16 _ mult [15:0] $end
$var reg 32 ` mult_ext [31:0] $end
$var reg 32 a acc_next [31:0] $end
$upscope $end
$scope module ROW[1].COL[2].u_mac $end
$var wire 1 * clk $end
$var wire 1 + rst $end
$var wire 1 b en $end
$var wire 8 c a [79:72] $end
$var wire 8 d b [79:72] $end
$var reg 32 e acc_out [319:288] $end
$var reg 16 f mult_out [159:144] $end
$var reg 16 g activity_count [159:144] $end
$var reg 16 h mult [15:0] $end
$var reg 32 i mult_ext [31:0] $end
$var reg 32 j acc_next [31:0] $end
$upscope $end
$scope module ROW[1].COL[3].u_mac $end
$var wire 1 * clk $end
$var wire 1 + rst $end
$var wire 1 k en $end
$var wire 8 l a [71:64] $end
$var wire 8 m b [71:64] $end
$var reg 32 n acc_out [287:256] $end
$var reg 16 o mult_out [143:128] $end
$var reg 16 p activity_count [143:128] $end
$var reg 16 q mult [15:0] $end
$var reg 32 r mult_ext [31:0] $end
$var reg 32 s acc_next [31:0] $end
$upscope $end
$scope module ROW[2].COL[0].u_mac $end
$var wire 1 * clk $end
$var wire 1 + rst $end
$var wire 1 t en $end
$var wire 8 u a [63:56] $end
$var wire 8 v b [63:56] $end
$var reg 32 w acc_out [255:224] $end
$var reg 16 x mult_out [127:112] $end
$var reg 16 y activity_count [127:112] $end
$var reg 16 z mult [15:0] $end
$var reg 32 { mult_ext [31:0] $end
$var reg 32 | acc_next [31:0] $end
$upscope $end
$scope module ROW[2].COL[1].u_mac $end
$var wire 1 * clk $end
$var wire 1 + rst $end
$var wire 1 } en $end
$var wire 8 ~ a [55:48] $end
$var wire 8 !! b [55:48] $end
$var reg 32 "! acc_out [223:192] $end
$var reg 16 #! mult_out [111:96] $end
$var reg 16 $! activity_count [111:96] $end
$var reg 16 %! mult [15:0] $end
$var reg 32 &! mult_ext [31:0] $end
$var reg 32 '! acc_next [31:0] $end
$upscope $end
$scope module ROW[2].COL[2].u_mac $end
$var wire 1 * clk $end
$var wire 1 + rst $end
$var wire 1 (! en $end
$var wire 8 )! a [47:40] $end
$var wire 8 *! b [47:40] $end
$var reg 32 +! acc_out [191:160] $end
$var reg 16 ,! mult_out [95:80] $end
$var reg 16 -! activity_count [95:80] $end
$var reg 16 .! mult [15:0] $end
$var reg 32 /! mult_ext [31:0] $end
$var reg 32 0! acc_next [31:0] $end
$upscope $end
$scope module ROW[2].COL[3].u_mac $end
$var wire 1 * clk $end
$var wire 1 + rst $end
$var wire 1 1! en $end
$var wire 8 2! a [39:32] $end
$var wire 8 3! b [39:32] $end
$var reg 32 4! acc_out [159:128] $end
$var reg 16 5! mult_out [79:64] $end
$var reg 16 6! activity_count [79:64] $end
$var reg 16 7! mult [15:0] $end
$var reg 32 8! mult_ext [31:0] $end
$var reg 32 9! acc_next [31:0] $end
$upscope $end
$scope module ROW[3].COL[0].u_mac $end
$var wire 1 * clk $end
$var wire 1 + rst $end
$var wire 1 :! en $end
$var wire 8 ;! a [31:24] $end
$var wire 8 <! b [31:24] $end
$var reg 32 =! acc_out [127:96] $end
$var reg 16 >! mult_out [63:48] $end
$var reg 16 ?! activity_count [63:48] $end
$var reg 16 @! mult [15:0] $end
$var reg 32 A! mult_ext [31:0] $end
$var reg 32 B! acc_next [31:0] $end
$upscope $end
$scope module ROW[3].COL[1].u_mac $end
$var wire 1 * clk $end
$var wire 1 + rst $end
$var wire 1 C! en $end
$var wire 8 D! a [23:16] $end
$var wire 8 E! b [23:16] $end
$var reg 32 F! acc_out [95:64] $end
$var reg 16 G! mult_out [47:32] $end
$var reg 16 H! activity_count [47:32] $end
$var reg 16 I! mult [15:0] $end
$var reg 32 J! mult_ext [31:0] $end
$var reg 32 K! acc_next [31:0] $end
$upscope $end
$scope module ROW[3].COL[2].u_mac $end
$var wire 1 * clk $end
$var wire 1 + rst $end
$var wire 1 L! en $end
$var wire 8 M! a [15:8] $end
$var wire 8 N! b [15:8] $end
$var reg 32 O! acc_out [63:32] $end
$var reg 16 P! mult_out [31:16] $end
$var reg 16 Q! activity_count [31:16] $end
$var reg 16 R! mult [15:0] $end
$var reg 32 S! mult_ext [31:0] $end
$var reg 32 T! acc_next [31:0] $end
$upscope $end
$scope module ROW[3].COL[3].u_mac $end
$var wire 1 * clk $end
$var wire 1 + rst $end
$var wire 1 U! en $end
$var wire 8 V! a [7:0] $end
$var wire 8 W! b [7:0] $end
$var reg 32 X! acc_out [31:0] $end
$var reg 16 Y! mult_out [15:0] $end
$var reg 16 Z! activity_count [15:0] $end
$var reg 16 [! mult [15:0] $end
$var reg 32 \! mult_ext [31:0] $end
$var reg 32 ]! acc_next [31:0] $end
$upscope $end
$upscope $end
$scope task clear_all $end
$upscope $end
$scope task reset_dut $end
$upscope $end
$scope task hotspot_load $end
$var integer 32 ^! cycles [31:0] $end
$upscope $end
$scope task print_activity_counts $end
$upscope $end
$upscope $end
$enddefinitions $end

#0
$dumpvars
1!
b0 !!
0"
b0 "!
b0 #
b0 #!
b100 $
b0 $!
b100 %
b0 %!
bx &
b0 &!
bx '
b0 '!
bx (
0(!
bx )
b0 )!
1*
b0 *!
1+
b0 +!
0,
b0 ,!
b0 -
b0 -!
b0 .
b0 .!
b0 /
b0 /!
b0 0
b0 0!
b0 1
01!
b0 2
b0 2!
b0 3
b0 3!
b0 4
b0 4!
05
b0 5!
b0 6
b0 6!
b0 7
b0 7!
b0 8
b0 8!
b0 9
b0 9!
b0 :
0:!
b0 ;
b0 ;!
b0 <
b0 <!
b0 =
b0 =!
0>
b0 >!
b0 ?
b0 ?!
b0 @
b0 @!
b0 A
b0 A!
b0 B
b0 B!
b0 C
0C!
b0 D
b0 D!
b0 E
b0 E!
b0 F
b0 F!
0G
b0 G!
b0 H
b0 H!
b0 I
b0 I!
b0 J
b0 J!
b0 K
b0 K!
b0 L
0L!
b0 M
b0 M!
b0 N
b0 N!
b0 O
b0 O!
0P
b0 P!
b0 Q
b0 Q!
b0 R
b0 R!
b0 S
b0 S!
b0 T
b0 T!
b0 U
0U!
b0 V
b0 V!
b0 W
b0 W!
b0 X
b0 X!
0Y
b0 Y!
b0 Z
b0 Z!
b0 [
b0 [!
b0 \
b0 \!
b0 ]
b0 ]!
b0 ^
bx ^!
b0 _
b0 `
b0 a
0b
b0 c
b0 d
b0 e
b0 f
b0 g
b0 h
b0 i
b0 j
0k
b0 l
b0 m
b0 n
b0 o
b0 p
b0 q
b0 r
b0 s
0t
b0 u
b0 v
b0 w
b0 x
b0 y
b0 z
b0 {
b0 |
0}
b0 ~
$end

#25000
b0 !!
b1 #
b100 $
b100 %
b0 &
b10 '
b10 (
0(!
b10 )
b0 )!
b0 *!
0+
1,
b10 -
b10 .
b100 0
b1 1
01!
b100 2
b0 2!
b100 3
b0 3!
b100 4
15
b11 6
b10 7
b110 9
b1 :
0:!
b110 ;
b0 ;!
b110 <
b0 <!
b110 =
0>
b0 ?
b0 @
0C!
b0 D!
b0 E!
0G
b0 H
b0 I
0L!
b0 M!
b0 N!
1P
b11 Q
b11 R
b1001 T
b1 U
0U!
b1001 V
b0 V!
b1001 W
b0 W!
b1001 X
1Y
b100 Z
b11 [
b1100 ]
b1 ^
b1010 ^!
b1100 _
b1100 `
b1100 a
0b
b0 c
b0 d
0k
b0 l
b0 m
0t
b0 u
b0 v
0}
b0 ~

#30000
0!
0*

#35000
1!
b100 $
b100 %
b1 &
b10 '
b10 (
1*
b100 /
b10 1
b1000 4
b110 8
b10 :
b1100 =
b1001 S
b10 U
b10010 X
b1100 \
b10 ^
b11000 a

#40000
0!
0*

#45000
1!
b100 $
b100 %
b10 &
b10 '
b10 (
1*
b1000 /
b11 1
b1100 4
b1100 8
b11 :
b10010 =
b10010 S
b11 U
b11011 X
b11000 \
b11 ^
b100100 a

#50000
0!
0*

#55000
1!
b100 $
b100 %
b11 &
b10 '
b10 (
1*
b1100 /
b100 1
b10000 4
b10010 8
b100 :
b11000 =
b11011 S
b100 U
b100100 X
b100100 \
b100 ^
b110000 a

#60000
0!
0*

#65000
1!
b100 $
b100 %
b100 &
b10 '
b10 (
1*
b10000 /
b101 1
b10100 4
b11000 8
b101 :
b11110 =
b100100 S
b101 U
b101101 X
b110000 \
b101 ^
b111100 a

#70000
0!
0*

#75000
1!
b100 $
b100 %
b101 &
b10 '
b10 (
1*
b10100 /
b110 1
b11000 4
b11110 8
b110 :
b100100 =
b101101 S
b110 U
b110110 X
b111100 \
b110 ^
b1001000 a

#80000
0!
0*

#85000
1!
b100 $
b100 %
b110 &
b10 '
b10 (
1*
b11000 /
b111 1
b11100 4
b100100 8
b111 :
b101010 =
b110110 S
b111 U
b111111 X
b1001000 \
b111 ^
b1010100 a

#90000
0!
0*

#95000
1!
b100 $
b100 %
b111 &
b10 '
b10 (
1*
b11100 /
b1000 1
b100000 4
b101010 8
b1000 :
b110000 =
b111111 S
b1000 U
b1001000 X
b1010100 \
b1000 ^
b1100000 a

#100000
0!
0*

#105000
1!
b100 $
b100 %
b1000 &
b10 '
b10 (
1*
b100000 /
b1001 1
b100100 4
b110000 8
b1001 :
b110110 =
b1001000 S
b1001 U
b1010001 X
b1100000 \
b1001 ^
b1101100 a

#110000
0!
0*

#115000
1!
b100 $
b100 %
b1001 &
b10 '
b10 (
1*
b100100 /
b1010 1
b101000 4
b110110 8
b1010 :
b111100 =
b1010001 S
b1010 U
b1011010 X
b1101100 \
b1010 ^
b1111000 a

#120000
0!
0*

#125000
1!
b0 !!
b100 $
b100 %
b1010 &
0(!
b0 )!
1*
b0 *!
0,
b0 -
b0 .
b0 0
01!
b0 2
b0 2!
b0 3
b0 3!
b100100 4
05
b0 6
b0 7
b0 9
0:!
b0 ;
b0 ;!
b0 <
b0 <!
b110110 =
0>
b0 ?
b0 @
0C!
b0 D!
b0 E!
0G
b0 H
b0 I
0L!
b0 M!
b0 N!
0P
b0 Q
b0 R
b0 T
0U!
b0 V
b0 V!
b0 W
b0 W!
b1010001 X
0Y
b0 Z
b0 [
b0 ]
b0 _
b0 `
b1101100 a
0b
b0 c
b0 d
0k
b0 l
b0 m
0t
b0 u
b0 v
0}
b0 ~

#130000
0!
0*

#135000
1!
1*

#140000
0!
0*

#145000
1!
1*

#150000
0!
0*

#155000
1!
1*

#160000
0!
0*

#165000
1!
1*

#170000
0!
0*

#175000
1!
1*
$dumpoff
x*
x+
bx -
bx 6
bx ?
bx H
bx Q
bx Z
bx c
bx l
bx u
bx ~
bx )!
bx 2!
bx ;!
bx D!
bx M!
bx V!
bx .
bx 7
bx @
bx I
bx R
bx [
bx d
bx m
bx v
bx !!
bx *!
bx 3!
bx <!
bx E!
bx N!
bx W!
x,
x5
x>
xG
xP
xY
xb
xk
xt
x}
x(!
x1!
x:!
xC!
xL!
xU!
x!
x"
bx /
bx 8
bx A
bx J
bx S
bx \
bx e
bx n
bx w
bx "!
bx +!
bx 4!
bx =!
bx F!
bx O!
bx X!
bx 0
bx 9
bx B
bx K
bx T
bx ]
bx f
bx o
bx x
bx #!
bx ,!
bx 5!
bx >!
bx G!
bx P!
bx Y!
bx 1
bx :
bx C
bx L
bx U
bx ^
bx g
bx p
bx y
bx $!
bx -!
bx 6!
bx ?!
bx H!
bx Q!
bx Z!
bx #
bx $
bx %
bx &
bx '
bx (
bx )
bx 2
bx 3
bx 4
bx ;
bx <
bx =
bx D
bx E
bx F
bx M
bx N
bx O
bx V
bx W
bx X
bx _
bx `
bx a
bx h
bx i
bx j
bx q
bx r
bx s
bx z
bx {
bx |
bx %!
bx &!
bx '!
bx .!
bx /!
bx 0!
bx 7!
bx 8!
bx 9!
bx @!
bx A!
bx B!
bx I!
bx J!
bx K!
bx R!
bx S!
bx T!
bx [!
bx \!
bx ]!
bx ^!
$end

