thermal_aware_mac_array/thermal_aware_mac_array.sim/sim_1/behav/xsim/systolic_mac_array_hotspot_4x4.vcd
$date
   Mon Apr  6 22:31:44 2026
$end

$version
  2025.2
  $dumpfile ("systolic_mac_array_hotspot_4x4.vcd") 
$end

$timescale
  1ps
$end

$scope module tb_systolic_mac_array $end
$var reg 1 ! clk $end
$var reg 1 " rst $end
$var reg 1 # en $end
$var reg 2 $ workload_id [1:0] $end
$var integer 32 % i [31:0] $end
$var integer 32 & c [31:0] $end
$var integer 32 ' HOT_N [31:0] $end
$scope module dut $end
$var wire 1 ( clk $end
$var wire 1 ) rst $end
$var wire 1 * en $end
$var reg 8 + \ROW[0].COL[0].a_in_cell  [7:0] $end
$var reg 8 , \ROW[0].COL[0].b_in_cell  [7:0] $end
$var reg 8 - \ROW[0].COL[1].a_in_cell  [7:0] $end
$var reg 8 . \ROW[0].COL[1].b_in_cell  [7:0] $end
$var reg 8 / \ROW[0].COL[2].a_in_cell  [7:0] $end
$var reg 8 0 \ROW[0].COL[2].b_in_cell  [7:0] $end
$var reg 8 1 \ROW[0].COL[3].a_in_cell  [7:0] $end
$var reg 8 2 \ROW[0].COL[3].b_in_cell  [7:0] $end
$var reg 8 3 \ROW[1].COL[0].a_in_cell  [7:0] $end
$var reg 8 4 \ROW[1].COL[0].b_in_cell  [7:0] $end
$var reg 8 5 \ROW[1].COL[1].a_in_cell  [7:0] $end
$var reg 8 6 \ROW[1].COL[1].b_in_cell  [7:0] $end
$var reg 8 7 \ROW[1].COL[2].a_in_cell  [7:0] $end
$var reg 8 8 \ROW[1].COL[2].b_in_cell  [7:0] $end
$var reg 8 9 \ROW[1].COL[3].a_in_cell  [7:0] $end
$var reg 8 : \ROW[1].COL[3].b_in_cell  [7:0] $end
$var reg 8 ; \ROW[2].COL[0].a_in_cell  [7:0] $end
$var reg 8 < \ROW[2].COL[0].b_in_cell  [7:0] $end
$var reg 8 = \ROW[2].COL[1].a_in_cell  [7:0] $end
$var reg 8 > \ROW[2].COL[1].b_in_cell  [7:0] $end
$var reg 8 ? \ROW[2].COL[2].a_in_cell  [7:0] $end
$var reg 8 @ \ROW[2].COL[2].b_in_cell  [7:0] $end
$var reg 8 A \ROW[2].COL[3].a_in_cell  [7:0] $end
$var reg 8 B \ROW[2].COL[3].b_in_cell  [7:0] $end
$var reg 8 C \ROW[3].COL[0].a_in_cell  [7:0] $end
$var reg 8 D \ROW[3].COL[0].b_in_cell  [7:0] $end
$var reg 8 E \ROW[3].COL[1].a_in_cell  [7:0] $end
$var reg 8 F \ROW[3].COL[1].b_in_cell  [7:0] $end
$var reg 8 G \ROW[3].COL[2].a_in_cell  [7:0] $end
$var reg 8 H \ROW[3].COL[2].b_in_cell  [7:0] $end
$var reg 8 I \ROW[3].COL[3].a_in_cell  [7:0] $end
$var reg 8 J \ROW[3].COL[3].b_in_cell  [7:0] $end
$scope module ROW[0].COL[0].u_cell $end
$var wire 1 ( clk $end
$var wire 1 ) rst $end
$var wire 1 * en $end
$var wire 8 K a_in [7:0] $end
$var wire 8 L b_in [7:0] $end
$var reg 8 M a_out [127:120] $end
$var reg 8 N b_out [127:120] $end
$var reg 32 O acc_out [511:480] $end
$var reg 16 P mult_out [255:240] $end
$var reg 16 Q activity_count [255:240] $end
$var reg 16 R mult [15:0] $end
$var reg 32 S mult_ext [31:0] $end
$var reg 32 T acc_next [31:0] $end
$upscope $end
$scope module ROW[0].COL[1].u_cell $end
$var wire 1 ( clk $end
$var wire 1 ) rst $end
$var wire 1 * en $end
$var wire 8 U a_in [7:0] $end
$var wire 8 V b_in [7:0] $end
$var reg 8 W a_out [119:112] $end
$var reg 8 X b_out [119:112] $end
$var reg 32 Y acc_out [479:448] $end
$var reg 16 Z mult_out [239:224] $end
$var reg 16 [ activity_count [239:224] $end
$var reg 16 \ mult [15:0] $end
$var reg 32 ] mult_ext [31:0] $end
$var reg 32 ^ acc_next [31:0] $end
$upscope $end
$scope module ROW[0].COL[2].u_cell $end
$var wire 1 ( clk $end
$var wire 1 ) rst $end
$var wire 1 * en $end
$var wire 8 _ a_in [7:0] $end
$var wire 8 ` b_in [7:0] $end
$var reg 8 a a_out [111:104] $end
$var reg 8 b b_out [111:104] $end
$var reg 32 c acc_out [447:416] $end
$var reg 16 d mult_out [223:208] $end
$var reg 16 e activity_count [223:208] $end
$var reg 16 f mult [15:0] $end
$var reg 32 g mult_ext [31:0] $end
$var reg 32 h acc_next [31:0] $end
$upscope $end
$scope module ROW[0].COL[3].u_cell $end
$var wire 1 ( clk $end
$var wire 1 ) rst $end
$var wire 1 * en $end
$var wire 8 i a_in [7:0] $end
$var wire 8 j b_in [7:0] $end
$var reg 8 k a_out [103:96] $end
$var reg 8 l b_out [103:96] $end
$var reg 32 m acc_out [415:384] $end
$var reg 16 n mult_out [207:192] $end
$var reg 16 o activity_count [207:192] $end
$var reg 16 p mult [15:0] $end
$var reg 32 q mult_ext [31:0] $end
$var reg 32 r acc_next [31:0] $end
$upscope $end
$scope module ROW[1].COL[0].u_cell $end
$var wire 1 ( clk $end
$var wire 1 ) rst $end
$var wire 1 * en $end
$var wire 8 s a_in [7:0] $end
$var wire 8 t b_in [7:0] $end
$var reg 8 u a_out [95:88] $end
$var reg 8 v b_out [95:88] $end
$var reg 32 w acc_out [383:352] $end
$var reg 16 x mult_out [191:176] $end
$var reg 16 y activity_count [191:176] $end
$var reg 16 z mult [15:0] $end
$var reg 32 { mult_ext [31:0] $end
$var reg 32 | acc_next [31:0] $end
$upscope $end
$scope module ROW[1].COL[1].u_cell $end
$var wire 1 ( clk $end
$var wire 1 ) rst $end
$var wire 1 * en $end
$var wire 8 } a_in [7:0] $end
$var wire 8 ~ b_in [7:0] $end
$var reg 8 !! a_out [87:80] $end
$var reg 8 "! b_out [87:80] $end
$var reg 32 #! acc_out [351:320] $end
$var reg 16 $! mult_out [175:160] $end
$var reg 16 %! activity_count [175:160] $end
$var reg 16 &! mult [15:0] $end
$var reg 32 '! mult_ext [31:0] $end
$var reg 32 (! acc_next [31:0] $end
$upscope $end
$scope module ROW[1].COL[2].u_cell $end
$var wire 1 ( clk $end
$var wire 1 ) rst $end
$var wire 1 * en $end
$var wire 8 )! a_in [7:0] $end
$var wire 8 *! b_in [7:0] $end
$var reg 8 +! a_out [79:72] $end
$var reg 8 ,! b_out [79:72] $end
$var reg 32 -! acc_out [319:288] $end
$var reg 16 .! mult_out [159:144] $end
$var reg 16 /! activity_count [159:144] $end
$var reg 16 0! mult [15:0] $end
$var reg 32 1! mult_ext [31:0] $end
$var reg 32 2! acc_next [31:0] $end
$upscope $end
$scope module ROW[1].COL[3].u_cell $end
$var wire 1 ( clk $end
$var wire 1 ) rst $end
$var wire 1 * en $end
$var wire 8 3! a_in [7:0] $end
$var wire 8 4! b_in [7:0] $end
$var reg 8 5! a_out [71:64] $end
$var reg 8 6! b_out [71:64] $end
$var reg 32 7! acc_out [287:256] $end
$var reg 16 8! mult_out [143:128] $end
$var reg 16 9! activity_count [143:128] $end
$var reg 16 :! mult [15:0] $end
$var reg 32 ;! mult_ext [31:0] $end
$var reg 32 <! acc_next [31:0] $end
$upscope $end
$scope module ROW[2].COL[0].u_cell $end
$var wire 1 ( clk $end
$var wire 1 ) rst $end
$var wire 1 * en $end
$var wire 8 =! a_in [7:0] $end
$var wire 8 >! b_in [7:0] $end
$var reg 8 ?! a_out [63:56] $end
$var reg 8 @! b_out [63:56] $end
$var reg 32 A! acc_out [255:224] $end
$var reg 16 B! mult_out [127:112] $end
$var reg 16 C! activity_count [127:112] $end
$var reg 16 D! mult [15:0] $end
$var reg 32 E! mult_ext [31:0] $end
$var reg 32 F! acc_next [31:0] $end
$upscope $end
$scope module ROW[2].COL[1].u_cell $end
$var wire 1 ( clk $end
$var wire 1 ) rst $end
$var wire 1 * en $end
$var wire 8 G! a_in [7:0] $end
$var wire 8 H! b_in [7:0] $end
$var reg 8 I! a_out [55:48] $end
$var reg 8 J! b_out [55:48] $end
$var reg 32 K! acc_out [223:192] $end
$var reg 16 L! mult_out [111:96] $end
$var reg 16 M! activity_count [111:96] $end
$var reg 16 N! mult [15:0] $end
$var reg 32 O! mult_ext [31:0] $end
$var reg 32 P! acc_next [31:0] $end
$upscope $end
$scope module ROW[2].COL[2].u_cell $end
$var wire 1 ( clk $end
$var wire 1 ) rst $end
$var wire 1 * en $end
$var wire 8 Q! a_in [7:0] $end
$var wire 8 R! b_in [7:0] $end
$var reg 8 S! a_out [47:40] $end
$var reg 8 T! b_out [47:40] $end
$var reg 32 U! acc_out [191:160] $end
$var reg 16 V! mult_out [95:80] $end
$var reg 16 W! activity_count [95:80] $end
$var reg 16 X! mult [15:0] $end
$var reg 32 Y! mult_ext [31:0] $end
$var reg 32 Z! acc_next [31:0] $end
$upscope $end
$scope module ROW[2].COL[3].u_cell $end
$var wire 1 ( clk $end
$var wire 1 ) rst $end
$var wire 1 * en $end
$var wire 8 [! a_in [7:0] $end
$var wire 8 \! b_in [7:0] $end
$var reg 8 ]! a_out [39:32] $end
$var reg 8 ^! b_out [39:32] $end
$var reg 32 _! acc_out [159:128] $end
$var reg 16 `! mult_out [79:64] $end
$var reg 16 a! activity_count [79:64] $end
$var reg 16 b! mult [15:0] $end
$var reg 32 c! mult_ext [31:0] $end
$var reg 32 d! acc_next [31:0] $end
$upscope $end
$scope module ROW[3].COL[0].u_cell $end
$var wire 1 ( clk $end
$var wire 1 ) rst $end
$var wire 1 * en $end
$var wire 8 e! a_in [7:0] $end
$var wire 8 f! b_in [7:0] $end
$var reg 8 g! a_out [31:24] $end
$var reg 8 h! b_out [31:24] $end
$var reg 32 i! acc_out [127:96] $end
$var reg 16 j! mult_out [63:48] $end
$var reg 16 k! activity_count [63:48] $end
$var reg 16 l! mult [15:0] $end
$var reg 32 m! mult_ext [31:0] $end
$var reg 32 n! acc_next [31:0] $end
$upscope $end
$scope module ROW[3].COL[1].u_cell $end
$var wire 1 ( clk $end
$var wire 1 ) rst $end
$var wire 1 * en $end
$var wire 8 o! a_in [7:0] $end
$var wire 8 p! b_in [7:0] $end
$var reg 8 q! a_out [23:16] $end
$var reg 8 r! b_out [23:16] $end
$var reg 32 s! acc_out [95:64] $end
$var reg 16 t! mult_out [47:32] $end
$var reg 16 u! activity_count [47:32] $end
$var reg 16 v! mult [15:0] $end
$var reg 32 w! mult_ext [31:0] $end
$var reg 32 x! acc_next [31:0] $end
$upscope $end
$scope module ROW[3].COL[2].u_cell $end
$var wire 1 ( clk $end
$var wire 1 ) rst $end
$var wire 1 * en $end
$var wire 8 y! a_in [7:0] $end
$var wire 8 z! b_in [7:0] $end
$var reg 8 {! a_out [15:8] $end
$var reg 8 |! b_out [15:8] $end
$var reg 32 }! acc_out [63:32] $end
$var reg 16 ~! mult_out [31:16] $end
$var reg 16 !" activity_count [31:16] $end
$var reg 16 "" mult [15:0] $end
$var reg 32 #" mult_ext [31:0] $end
$var reg 32 $" acc_next [31:0] $end
$upscope $end
$scope module ROW[3].COL[3].u_cell $end
$var wire 1 ( clk $end
$var wire 1 ) rst $end
$var wire 1 * en $end
$var wire 8 %" a_in [7:0] $end
$var wire 8 &" b_in [7:0] $end
$var reg 8 '" a_out [7:0] $end
$var reg 8 (" b_out [7:0] $end
$var reg 32 )" acc_out [31:0] $end
$var reg 16 *" mult_out [15:0] $end
$var reg 16 +" activity_count [15:0] $end
$var reg 16 ," mult [15:0] $end
$var reg 32 -" mult_ext [31:0] $end
$var reg 32 ." acc_next [31:0] $end
$upscope $end
$upscope $end
$scope task clear_inputs $end
$upscope $end
$scope task reset_dut $end
$upscope $end
$scope task hotspot_stream $end
$var integer 32 /" cycles [31:0] $end
$upscope $end
$scope task print_activity_counts $end
$var integer 32 0" r [31:0] $end
$var integer 32 1" col [31:0] $end
$upscope $end
$upscope $end
$enddefinitions $end

#0
$dumpvars
1!
b0 !!
b0 !"
0"
b0 "!
b0 ""
0#
b0 #!
b0 #"
b0 $
b0 $!
b0 $"
b100 %
b0 %!
b0 %"
bx &
b0 &!
b0 &"
bx '
b0 '!
b0 '"
1(
b0 (!
b0 ("
1)
b0 )!
b0 )"
0*
b0 *!
b0 *"
b0 +
b0 +!
b0 +"
b0 ,
b0 ,!
b0 ,"
b0 -
b0 -!
b0 -"
b0 .
b0 .!
b0 ."
b0 /
b0 /!
bx /"
b0 0
b0 0!
bx 0"
b0 1
b0 1!
bx 1"
b0 2
b0 2!
b0 3
b0 3!
b0 4
b0 4!
b0 5
b0 5!
b0 6
b0 6!
b0 7
b0 7!
b0 8
b0 8!
b0 9
b0 9!
b0 :
b0 :!
b0 ;
b0 ;!
b0 <
b0 <!
b0 =
b0 =!
b0 >
b0 >!
b0 ?
b0 ?!
b0 @
b0 @!
b0 A
b0 A!
b0 B
b0 B!
b0 C
b0 C!
b0 D
b0 D!
b0 E
b0 E!
b0 F
b0 F!
b0 G
b0 G!
b0 H
b0 H!
b0 I
b0 I!
b0 J
b0 J!
b0 K
b0 K!
b0 L
b0 L!
b0 M
b0 M!
b0 N
b0 N!
b0 O
b0 O!
b0 P
b0 P!
b0 Q
b0 Q!
b0 R
b0 R!
b0 S
b0 S!
b0 T
b0 T!
b0 U
b0 U!
b0 V
b0 V!
b0 W
b0 W!
b0 X
b0 X!
b0 Y
b0 Y!
b0 Z
b0 Z!
b0 [
b0 [!
b0 \
b0 \!
b0 ]
b0 ]!
b0 ^
b0 ^!
b0 _
b0 _!
b0 `
b0 `!
b0 a
b0 a!
b0 b
b0 b!
b0 c
b0 c!
b0 d
b0 d!
b0 e
b0 e!
b0 f
b0 f!
b0 g
b0 g!
b0 h
b0 h!
b0 i
b0 i!
b0 j
b0 j!
b0 k
b0 k!
b0 l
b0 l!
b0 m
b0 m!
b0 n
b0 n!
b0 o
b0 o!
b0 p
b0 p!
b0 q
b0 q!
b0 r
b0 r!
b0 s
b0 s!
b0 t
b0 t!
b0 u
b0 u!
b0 v
b0 v!
b0 w
b0 w!
b0 x
b0 x!
b0 y
b0 y!
b0 z
b0 z!
b0 {
b0 {!
b0 |
b0 |!
b0 }
b0 }!
b0 ~
b0 ~!
$end

#25000
1#
b1 $
b10 %
b0 &
b10 '
0)
1*
b10 +
b11 ,
b100 .
b1100 /"
b11 3
b10 K
b11 L
b110 P
b110 R
b110 S
b110 T
b100 V
b11 s

#30000
0!
0(

#35000
1!
1#
b1100 $!
b10 %
b1 &
b1100 &!
b1100 '!
1(
b1100 (!
b11 +
b100 ,
b10 -
b101 .
b100 3
b11 4
b11 5
b100 6
b11 K
b100 L
b10 M
b11 N
b110 O
b1100 P
b1 Q
b1100 R
b1100 S
b10010 T
b10 U
b101 V
b100 X
b1010 Z
b1 [
b1010 \
b1010 ]
b1010 ^
b100 s
b11 t
b11 u
b1100 x
b1 y
b1100 z
b1100 {
b1100 |
b11 }
b100 ~

#40000
0!
0(

#45000
1!
b11 !!
b100 "!
1#
b1100 #!
b10100 $!
b10 %
b1 %!
b10 &
b10100 &!
b10100 '!
1(
b100000 (!
b11 )!
b100 +
b101 ,
b11 -
b110 .
b10 /
b101 3
b100 4
b100 5
b101 6
b11 7
b11 <
b100 >
b11 >!
b100 H!
b100 K
b101 L
b11 M
b100 N
b10010 O
b10100 P
b10 Q
b10100 R
b10100 S
b100110 T
b11 U
b110 V
b10 W
b101 X
b1010 Y
b10010 Z
b10 [
b10010 \
b10010 ]
b11100 ^
b10 _
b101 s
b100 t
b100 u
b11 v
b1100 w
b10100 x
b10 y
b10100 z
b10100 {
b100000 |
b100 }
b101 ~

#50000
0!
0(

#55000
1!
b100 !!
b101 "!
1#
b100000 #!
b11110 $!
b10 %
b10 %!
b11 &
b11110 &!
b11110 '!
1(
b111110 (!
b100 )!
b101 +
b11 +!
b110 ,
b100 -
b111 .
b11 /
b1 /!
b10 1
b110 3
b11 3!
b101 4
b101 5
b110 6
b100 7
b11 9
b100 <
b101 >
b100 >!
b11 @!
b1 C!
b11 D
b100 F
b101 H!
b100 J!
b101 K
b110 L
b100 M
b1 M!
b101 N
b100110 O
b11110 P
b11 Q
b11110 R
b11110 S
b1000100 T
b100 U
b111 V
b11 W
b110 X
b11100 Y
b11100 Z
b11 [
b11100 \
b11100 ]
b111000 ^
b11 _
b10 a
b1 e
b11 f!
b10 i
b100 p!
b110 s
b101 t
b101 u
b100 v
b100000 w
b11110 x
b11 y
b11110 z
b11110 {
b111110 |
b101 }
b110 ~

#60000
0!
0(

#65000
1!
b101 !!
b110 "!
1#
b111110 #!
b101010 $!
b10 %
b11 %!
b100 &
b101010 &!
b101010 '!
1(
b1101000 (!
b101 )!
b110 +
b100 +!
b111 ,
b101 -
b1000 .
b100 /
b10 /!
b11 1
b111 3
b100 3!
b110 4
b110 5
b11 5!
b111 6
b101 7
b100 9
b1 9!
b101 <
b110 >
b101 >!
b100 @!
b10 C!
b100 D
b101 F
b110 H!
b101 J!
b110 K
b111 L
b101 M
b10 M!
b110 N
b1000100 O
b101010 P
b100 Q
b101010 R
b101010 S
b1101110 T
b101 U
b1000 V
b100 W
b111 X
b111000 Y
b101000 Z
b100 [
b101000 \
b101000 ]
b1100000 ^
b100 _
b11 a
b10 e
b100 f!
b11 h!
b11 i
b10 k
b1 k!
b1 o
b101 p!
b100 r!
b111 s
b110 t
b110 u
b1 u!
b101 v
b111110 w
b101010 x
b100 y
b101010 z
b101010 {
b1101000 |
b110 }
b111 ~

#70000
0!
0(

#75000
1!
b110 !!
b111 "!
1#
b1101000 #!
b111000 $!
b10 %
b100 %!
b101 &
b111000 &!
b111000 '!
1(
b10100000 (!
b110 )!
b111 +
b101 +!
b1000 ,
b110 -
b1001 .
b101 /
b11 /!
b100 1
b1000 3
b101 3!
b111 4
b111 5
b100 5!
b1000 6
b110 7
b101 9
b10 9!
b110 <
b111 >
b110 >!
b101 @!
b11 C!
b101 D
b110 F
b111 H!
b110 J!
b111 K
b1000 L
b110 M
b11 M!
b111 N
b1101110 O
b111000 P
b101 Q
b111000 R
b111000 S
b10100110 T
b110 U
b1001 V
b101 W
b1000 X
b1100000 Y
b110110 Z
b101 [
b110110 \
b110110 ]
b10010110 ^
b101 _
b100 a
b11 e
b101 f!
b100 h!
b100 i
b11 k
b10 k!
b10 o
b110 p!
b101 r!
b1000 s
b111 t
b111 u
b10 u!
b110 v
b1101000 w
b111000 x
b101 y
b111000 z
b111000 {
b10100000 |
b111 }
b1000 ~

#80000
0!
0(

#85000
1!
b111 !!
b1000 "!
1#
b10100000 #!
b1001000 $!
b10 %
b101 %!
b110 &
b1001000 &!
b1001000 '!
1(
b11101000 (!
b111 )!
b1000 +
b110 +!
b1001 ,
b111 -
b1010 .
b110 /
b100 /!
b101 1
b1001 3
b110 3!
b1000 4
b1000 5
b101 5!
b1001 6
b111 7
b110 9
b11 9!
b111 <
b1000 >
b111 >!
b110 @!
b100 C!
b110 D
b111 F
b1000 H!
b111 J!
b1000 K
b1001 L
b111 M
b100 M!
b1000 N
b10100110 O
b1001000 P
b110 Q
b1001000 R
b1001000 S
b11101110 T
b111 U
b1010 V
b110 W
b1001 X
b10010110 Y
b1000110 Z
b110 [
b1000110 \
b1000110 ]
b11011100 ^
b110 _
b101 a
b100 e
b110 f!
b101 h!
b101 i
b100 k
b11 k!
b11 o
b111 p!
b110 r!
b1001 s
b1000 t
b1000 u
b11 u!
b111 v
b10100000 w
b1001000 x
b110 y
b1001000 z
b1001000 {
b11101000 |
b1000 }
b1001 ~

#90000
0!
0(

#95000
1!
b1000 !!
b1001 "!
1#
b11101000 #!
b1011010 $!
b10 %
b110 %!
b111 &
b1011010 &!
b1011010 '!
1(
b101000010 (!
b1000 )!
b1001 +
b111 +!
b1010 ,
b1000 -
b1011 .
b111 /
b101 /!
b110 1
b1010 3
b111 3!
b1001 4
b1001 5
b110 5!
b1010 6
b1000 7
b111 9
b100 9!
b1000 <
b1001 >
b1000 >!
b111 @!
b101 C!
b111 D
b1000 F
b1001 H!
b1000 J!
b1001 K
b1010 L
b1000 M
b101 M!
b1001 N
b11101110 O
b1011010 P
b111 Q
b1011010 R
b1011010 S
b101001000 T
b1000 U
b1011 V
b111 W
b1010 X
b11011100 Y
b1011000 Z
b111 [
b1011000 \
b1011000 ]
b100110100 ^
b111 _
b110 a
b101 e
b111 f!
b110 h!
b110 i
b101 k
b100 k!
b100 o
b1000 p!
b111 r!
b1010 s
b1001 t
b1001 u
b100 u!
b1000 v
b11101000 w
b1011010 x
b111 y
b1011010 z
b1011010 {
b101000010 |
b1001 }
b1010 ~

#100000
0!
0(

#105000
1!
b1001 !!
b1010 "!
1#
b101000010 #!
b1101110 $!
b10 %
b111 %!
b1000 &
b1101110 &!
b1101110 '!
1(
b110110000 (!
b1001 )!
b1010 +
b1000 +!
b1011 ,
b1001 -
b1100 .
b1000 /
b110 /!
b111 1
b1011 3
b1000 3!
b1010 4
b1010 5
b111 5!
b1011 6
b1001 7
b1000 9
b101 9!
b1001 <
b1010 >
b1001 >!
b1000 @!
b110 C!
b1000 D
b1001 F
b1010 H!
b1001 J!
b1010 K
b1011 L
b1001 M
b110 M!
b1010 N
b101001000 O
b1101110 P
b1000 Q
b1101110 R
b1101110 S
b110110110 T
b1001 U
b1100 V
b1000 W
b1011 X
b100110100 Y
b1101100 Z
b1000 [
b1101100 \
b1101100 ]
b110100000 ^
b1000 _
b111 a
b110 e
b1000 f!
b111 h!
b111 i
b110 k
b101 k!
b101 o
b1001 p!
b1000 r!
b1011 s
b1010 t
b1010 u
b101 u!
b1001 v
b101000010 w
b1101110 x
b1000 y
b1101110 z
b1101110 {
b110110000 |
b1010 }
b1011 ~

#110000
0!
0(

#115000
1!
b1010 !!
b1011 "!
1#
b110110000 #!
b10000100 $!
b10 %
b1000 %!
b1001 &
b10000100 &!
b10000100 '!
1(
b1000110100 (!
b1010 )!
b1011 +
b1001 +!
b1100 ,
b1010 -
b1101 .
b1001 /
b111 /!
b1000 1
b1100 3
b1001 3!
b1011 4
b1011 5
b1000 5!
b1100 6
b1010 7
b1001 9
b110 9!
b1010 <
b1011 >
b1010 >!
b1001 @!
b111 C!
b1001 D
b1010 F
b1011 H!
b1010 J!
b1011 K
b1100 L
b1010 M
b111 M!
b1011 N
b110110110 O
b10000100 P
b1001 Q
b10000100 R
b10000100 S
b1000111010 T
b1010 U
b1101 V
b1001 W
b1100 X
b110100000 Y
b10000010 Z
b1001 [
b10000010 \
b10000010 ]
b1000100010 ^
b1001 _
b1000 a
b111 e
b1001 f!
b1000 h!
b1000 i
b111 k
b110 k!
b110 o
b1010 p!
b1001 r!
b1100 s
b1011 t
b1011 u
b110 u!
b1010 v
b110110000 w
b10000100 x
b1001 y
b10000100 z
b10000100 {
b1000110100 |
b1011 }
b1100 ~

#120000
0!
0(

#125000
1!
b1011 !!
b1100 "!
1#
b1000110100 #!
b10011100 $!
b10 %
b1001 %!
b1010 &
b10011100 &!
b10011100 '!
1(
b1011010000 (!
b1011 )!
b1100 +
b1010 +!
b1101 ,
b1011 -
b1110 .
b1010 /
b1000 /!
b1001 1
b1101 3
b1010 3!
b1100 4
b1100 5
b1001 5!
b1101 6
b1011 7
b1010 9
b111 9!
b1011 <
b1100 >
b1011 >!
b1010 @!
b1000 C!
b1010 D
b1011 F
b1100 H!
b1011 J!
b1100 K
b1101 L
b1011 M
b1000 M!
b1100 N
b1000111010 O
b10011100 P
b1010 Q
b10011100 R
b10011100 S
b1011010110 T
b1011 U
b1110 V
b1010 W
b1101 X
b1000100010 Y
b10011010 Z
b1010 [
b10011010 \
b10011010 ]
b1010111100 ^
b1010 _
b1001 a
b1000 e
b1010 f!
b1001 h!
b1001 i
b1000 k
b111 k!
b111 o
b1011 p!
b1010 r!
b1101 s
b1100 t
b1100 u
b111 u!
b1011 v
b1000110100 w
b10011100 x
b1010 y
b10011100 z
b10011100 {
b1011010000 |
b1100 }
b1101 ~

#130000
0!
0(

#135000
1!
b1100 !!
b1101 "!
1#
b1011010000 #!
b10110110 $!
b10 %
b1010 %!
b1011 &
b10110110 &!
b10110110 '!
1(
b1110000110 (!
b1100 )!
b1101 +
b1011 +!
b1110 ,
b1100 -
b1111 .
b1011 /
b1001 /!
b1010 1
b1110 3
b1011 3!
b1101 4
b1101 5
b1010 5!
b1110 6
b1100 7
b1011 9
b1000 9!
b1100 <
b1101 >
b1100 >!
b1011 @!
b1001 C!
b1011 D
b1100 F
b1101 H!
b1100 J!
b1101 K
b1110 L
b1100 M
b1001 M!
b1101 N
b1011010110 O
b10110110 P
b1011 Q
b10110110 R
b10110110 S
b1110001100 T
b1100 U
b1111 V
b1011 W
b1110 X
b1010111100 Y
b10110100 Z
b1011 [
b10110100 \
b10110100 ]
b1101110000 ^
b1011 _
b1010 a
b1001 e
b1011 f!
b1010 h!
b1010 i
b1001 k
b1000 k!
b1000 o
b1100 p!
b1011 r!
b1110 s
b1101 t
b1101 u
b1000 u!
b1100 v
b1011010000 w
b10110110 x
b1011 y
b10110110 z
b10110110 {
b1110000110 |
b1101 }
b1110 ~

#140000
0!
0(

#145000
1!
b1101 !!
b1110 "!
1#
b1110000110 #!
b11010010 $!
b100 %
b1011 %!
b1100 &
b11010010 &!
b11010010 '!
1(
b10001011000 (!
b1101 )!
b0 +
b1100 +!
b0 ,
b1101 -
b0 .
b1100 /
b1010 /!
b1011 1
b0 3
b1100 3!
b1110 4
b1110 5
b1011 5!
b1111 6
b1101 7
b1100 9
b1001 9!
b1101 <
b1110 >
b1101 >!
b1100 @!
b1010 C!
b1100 D
b1101 F
b1110 H!
b1101 J!
b0 K
b0 L
b1101 M
b1010 M!
b1110 N
b1110001100 O
b0 P
b1100 Q
b0 R
b0 S
b1110001100 T
b1101 U
b0 V
b1100 W
b1111 X
b1101110000 Y
b0 Z
b1100 [
b0 \
b0 ]
b1101110000 ^
b1100 _
b1011 a
b1010 e
b1100 f!
b1011 h!
b1011 i
b1010 k
b1001 k!
b1001 o
b1101 p!
b1100 r!
b0 s
b1110 t
b1110 u
b1001 u!
b1101 v
b1110000110 w
b0 x
b1100 y
b0 z
b0 {
b1110000110 |
b1110 }
b1111 ~

#150000
0!
0(

#155000
1!
b1110 !!
b1111 "!
b10001011000 #!
b0 $!
b1100 %!
b0 &!
b0 '!
1(
b1110 )!
b1101 +!
b0 -
b1101 /
b1011 /!
b1100 1
b1101 3!
b0 4
b0 5
b1100 5!
b0 6
b1110 7
b1101 9
b1010 9!
b1110 <
b1111 >
b1110 >!
b1101 @!
b1011 C!
b1101 D
b1110 F
b1111 H!
b1110 J!
b0 M
b1011 M!
b0 N
b0 U
b1101 W
b0 X
b1101 [
b1101 _
b1100 a
b1011 e
b1101 f!
b1100 h!
b1100 i
b1011 k
b1010 k!
b1010 o
b1110 p!
b1101 r!
b0 t
b0 u
b1010 u!
b1110 v
b1101 y
b0 }
b0 ~

#160000
0!
0(

#165000
1!
b0 !!
b0 "!
1(
b0 )!
b1110 +!
b0 /
b1100 /!
b1101 1
b1110 3!
b1101 5!
b0 7
b1110 9
b1011 9!
b0 <
b0 >
b0 >!
b1110 @!
b1100 C!
b1110 D
b1111 F
b0 H!
b1111 J!
b1100 M!
b0 W
b0 _
b1101 a
b1100 e
b1110 f!
b1101 h!
b1101 i
b1100 k
b1011 k!
b1011 o
b1111 p!
b1110 r!
b1011 u!
b0 v

#170000
0!
0(

#175000
1!
1(
b0 +!
b0 1
b0 3!
b1110 5!
b0 9
b1100 9!
b0 @!
b0 D
b0 F
b0 J!
b0 a
b0 f!
b1110 h!
b0 i
b1101 k
b1100 k!
b1100 o
b0 p!
b1111 r!
b1100 u!

#180000
0!
0(

#185000
1!
1(
b0 5!
b0 h!
b0 k
b0 r!

#190000
0!
0(

#195000
1!
1(

#200000
0!
0(

#205000
1!
1(

#210000
0!
0(

#215000
1!
1(

#220000
0!
0(

