thermal_aware_mac_array/thermal_aware_mac_array.sim/sim_1/behav/xsim/systolic_mac_array_checkerboard_2x2.vcd
$date
   Mon Apr  6 22:23:13 2026
$end

$version
  2025.2
  $dumpfile ("systolic_mac_array_checkerboard_2x2.vcd") 
$end

$timescale
  1ps
$end

$scope module tb_systolic_mac_array $end
$var reg 1 ! clk $end
$var reg 1 " rst $end
$var reg 1 # en $end
$var reg 2 $ workload_id [1:0] $end
$var integer 32 % i [31:0] $end
$var integer 32 & c [31:0] $end
$var integer 32 ' HOT_N [31:0] $end
$scope module dut $end
$var wire 1 ( clk $end
$var wire 1 ) rst $end
$var wire 1 * en $end
$var reg 8 + \ROW[0].COL[0].a_in_cell  [7:0] $end
$var reg 8 , \ROW[0].COL[0].b_in_cell  [7:0] $end
$var reg 8 - \ROW[0].COL[1].a_in_cell  [7:0] $end
$var reg 8 . \ROW[0].COL[1].b_in_cell  [7:0] $end
$var reg 8 / \ROW[1].COL[0].a_in_cell  [7:0] $end
$var reg 8 0 \ROW[1].COL[0].b_in_cell  [7:0] $end
$var reg 8 1 \ROW[1].COL[1].a_in_cell  [7:0] $end
$var reg 8 2 \ROW[1].COL[1].b_in_cell  [7:0] $end
$scope module ROW[0].COL[0].u_cell $end
$var wire 1 ( clk $end
$var wire 1 ) rst $end
$var wire 1 * en $end
$var wire 8 3 a_in [7:0] $end
$var wire 8 4 b_in [7:0] $end
$var reg 8 5 a_out [31:24] $end
$var reg 8 6 b_out [31:24] $end
$var reg 32 7 acc_out [127:96] $end
$var reg 16 8 mult_out [63:48] $end
$var reg 16 9 activity_count [63:48] $end
$var reg 16 : mult [15:0] $end
$var reg 32 ; mult_ext [31:0] $end
$var reg 32 < acc_next [31:0] $end
$upscope $end
$scope module ROW[0].COL[1].u_cell $end
$var wire 1 ( clk $end
$var wire 1 ) rst $end
$var wire 1 * en $end
$var wire 8 = a_in [7:0] $end
$var wire 8 > b_in [7:0] $end
$var reg 8 ? a_out [23:16] $end
$var reg 8 @ b_out [23:16] $end
$var reg 32 A acc_out [95:64] $end
$var reg 16 B mult_out [47:32] $end
$var reg 16 C activity_count [47:32] $end
$var reg 16 D mult [15:0] $end
$var reg 32 E mult_ext [31:0] $end
$var reg 32 F acc_next [31:0] $end
$upscope $end
$scope module ROW[1].COL[0].u_cell $end
$var wire 1 ( clk $end
$var wire 1 ) rst $end
$var wire 1 * en $end
$var wire 8 G a_in [7:0] $end
$var wire 8 H b_in [7:0] $end
$var reg 8 I a_out [15:8] $end
$var reg 8 J b_out [15:8] $end
$var reg 32 K acc_out [63:32] $end
$var reg 16 L mult_out [31:16] $end
$var reg 16 M activity_count [31:16] $end
$var reg 16 N mult [15:0] $end
$var reg 32 O mult_ext [31:0] $end
$var reg 32 P acc_next [31:0] $end
$upscope $end
$scope module ROW[1].COL[1].u_cell $end
$var wire 1 ( clk $end
$var wire 1 ) rst $end
$var wire 1 * en $end
$var wire 8 Q a_in [7:0] $end
$var wire 8 R b_in [7:0] $end
$var reg 8 S a_out [7:0] $end
$var reg 8 T b_out [7:0] $end
$var reg 32 U acc_out [31:0] $end
$var reg 16 V mult_out [15:0] $end
$var reg 16 W activity_count [15:0] $end
$var reg 16 X mult [15:0] $end
$var reg 32 Y mult_ext [31:0] $end
$var reg 32 Z acc_next [31:0] $end
$upscope $end
$upscope $end
$scope task clear_inputs $end
$upscope $end
$scope task reset_dut $end
$upscope $end
$scope task checkerboard_stream $end
$var integer 32 [ cycles [31:0] $end
$upscope $end
$scope task print_activity_counts $end
$var integer 32 \ r [31:0] $end
$var integer 32 ] col [31:0] $end
$upscope $end
$upscope $end
$enddefinitions $end

#0
$dumpvars
1!
0"
0#
b0 $
b10 %
bx &
bx '
1(
1)
0*
b0 +
b0 ,
b0 -
b0 .
b0 /
b0 0
b0 1
b0 2
b0 3
b0 4
b0 5
b0 6
b0 7
b0 8
b0 9
b0 :
b0 ;
b0 <
b0 =
b0 >
b0 ?
b0 @
b0 A
b0 B
b0 C
b0 D
b0 E
b0 F
b0 G
b0 H
b0 I
b0 J
b0 K
b0 L
b0 M
b0 N
b0 O
b0 P
b0 Q
b0 R
b0 S
b0 T
b0 U
b0 V
b0 W
b0 X
b0 Y
b0 Z
bx [
bx \
bx ]
$end

#25000
1#
b10 $
b10 %
b0 &
0)
1*
b1 +
b10 ,
b1 3
b10 4
b10 8
b10 :
b10 ;
b10 <
b1100 [

#30000
0!
0(

#35000
1!
1#
b10 %
b1 &
1(
b0 +
b0 ,
b1 -
b100 .
b11 /
b10 0
b0 3
b0 4
b1 5
b10 6
b10 7
b0 8
b1 9
b0 :
b0 ;
b10 <
b1 =
b100 >
b100 B
b100 D
b100 E
b100 F
b11 G
b10 H
b110 L
b110 N
b110 O
b110 P

#40000
0!
0(

#45000
1!
1#
b10 %
b10 &
1(
b11 +
b100 ,
b0 -
b0 .
b0 /
b0 0
b11 1
b100 2
b11 3
b100 4
b0 5
b0 6
b1100 8
b1100 :
b1100 ;
b1110 <
b0 =
b0 >
b1 ?
b100 @
b100 A
b0 B
b1 C
b0 D
b0 E
b100 F
b0 G
b0 H
b11 I
b10 J
b110 K
b0 L
b1 M
b0 N
b0 O
b110 P
b11 Q
b100 R
b1100 V
b1100 X
b1100 Y
b1100 Z

#50000
0!
0(

#55000
1!
1#
b10 %
b11 &
1(
b0 +
b0 ,
b11 -
b110 .
b101 /
b100 0
b0 1
b0 2
b0 3
b0 4
b11 5
b100 6
b1110 7
b0 8
b10 9
b0 :
b0 ;
b1110 <
b11 =
b110 >
b0 ?
b0 @
b10010 B
b10010 D
b10010 E
b10110 F
b101 G
b100 H
b0 I
b0 J
b10100 L
b10100 N
b10100 O
b11010 P
b0 Q
b0 R
b11 S
b100 T
b1100 U
b0 V
b1 W
b0 X
b0 Y

#60000
0!
0(

#65000
1!
1#
b10 %
b100 &
1(
b101 +
b110 ,
b0 -
b0 .
b0 /
b0 0
b101 1
b110 2
b101 3
b110 4
b0 5
b0 6
b11110 8
b11110 :
b11110 ;
b101100 <
b0 =
b0 >
b11 ?
b110 @
b10110 A
b0 B
b10 C
b0 D
b0 E
b10110 F
b0 G
b0 H
b101 I
b100 J
b11010 K
b0 L
b10 M
b0 N
b0 O
b11010 P
b101 Q
b110 R
b0 S
b0 T
b11110 V
b11110 X
b11110 Y
b101010 Z

#70000
0!
0(

#75000
1!
1#
b10 %
b101 &
1(
b0 +
b0 ,
b101 -
b1000 .
b111 /
b110 0
b0 1
b0 2
b0 3
b0 4
b101 5
b110 6
b101100 7
b0 8
b11 9
b0 :
b0 ;
b101100 <
b101 =
b1000 >
b0 ?
b0 @
b101000 B
b101000 D
b101000 E
b111110 F
b111 G
b110 H
b0 I
b0 J
b101010 L
b101010 N
b101010 O
b1000100 P
b0 Q
b0 R
b101 S
b110 T
b101010 U
b0 V
b10 W
b0 X
b0 Y

#80000
0!
0(

#85000
1!
1#
b10 %
b110 &
1(
b111 +
b1000 ,
b0 -
b0 .
b0 /
b0 0
b111 1
b1000 2
b111 3
b1000 4
b0 5
b0 6
b111000 8
b111000 :
b111000 ;
b1100100 <
b0 =
b0 >
b101 ?
b1000 @
b111110 A
b0 B
b11 C
b0 D
b0 E
b111110 F
b0 G
b0 H
b111 I
b110 J
b1000100 K
b0 L
b11 M
b0 N
b0 O
b1000100 P
b111 Q
b1000 R
b0 S
b0 T
b111000 V
b111000 X
b111000 Y
b1100010 Z

#90000
0!
0(

#95000
1!
1#
b10 %
b111 &
1(
b0 +
b0 ,
b111 -
b1010 .
b1001 /
b1000 0
b0 1
b0 2
b0 3
b0 4
b111 5
b1000 6
b1100100 7
b0 8
b100 9
b0 :
b0 ;
b1100100 <
b111 =
b1010 >
b0 ?
b0 @
b1000110 B
b1000110 D
b1000110 E
b10000100 F
b1001 G
b1000 H
b0 I
b0 J
b1001000 L
b1001000 N
b1001000 O
b10001100 P
b0 Q
b0 R
b111 S
b1000 T
b1100010 U
b0 V
b11 W
b0 X
b0 Y

#100000
0!
0(

#105000
1!
1#
b10 %
b1000 &
1(
b1001 +
b1010 ,
b0 -
b0 .
b0 /
b0 0
b1001 1
b1010 2
b1001 3
b1010 4
b0 5
b0 6
b1011010 8
b1011010 :
b1011010 ;
b10111110 <
b0 =
b0 >
b111 ?
b1010 @
b10000100 A
b0 B
b100 C
b0 D
b0 E
b10000100 F
b0 G
b0 H
b1001 I
b1000 J
b10001100 K
b0 L
b100 M
b0 N
b0 O
b10001100 P
b1001 Q
b1010 R
b0 S
b0 T
b1011010 V
b1011010 X
b1011010 Y
b10111100 Z

#110000
0!
0(

#115000
1!
1#
b10 %
b1001 &
1(
b0 +
b0 ,
b1001 -
b1100 .
b1011 /
b1010 0
b0 1
b0 2
b0 3
b0 4
b1001 5
b1010 6
b10111110 7
b0 8
b101 9
b0 :
b0 ;
b10111110 <
b1001 =
b1100 >
b0 ?
b0 @
b1101100 B
b1101100 D
b1101100 E
b11110000 F
b1011 G
b1010 H
b0 I
b0 J
b1101110 L
b1101110 N
b1101110 O
b11111010 P
b0 Q
b0 R
b1001 S
b1010 T
b10111100 U
b0 V
b100 W
b0 X
b0 Y

#120000
0!
0(

#125000
1!
1#
b10 %
b1010 &
1(
b1011 +
b1100 ,
b0 -
b0 .
b0 /
b0 0
b1011 1
b1100 2
b1011 3
b1100 4
b0 5
b0 6
b10000100 8
b10000100 :
b10000100 ;
b101000010 <
b0 =
b0 >
b1001 ?
b1100 @
b11110000 A
b0 B
b101 C
b0 D
b0 E
b11110000 F
b0 G
b0 H
b1011 I
b1010 J
b11111010 K
b0 L
b101 M
b0 N
b0 O
b11111010 P
b1011 Q
b1100 R
b0 S
b0 T
b10000100 V
b10000100 X
b10000100 Y
b101000000 Z

#130000
0!
0(

#135000
1!
1#
b10 %
b1011 &
1(
b0 +
b0 ,
b1011 -
b1110 .
b1101 /
b1100 0
b0 1
b0 2
b0 3
b0 4
b1011 5
b1100 6
b101000010 7
b0 8
b110 9
b0 :
b0 ;
b101000010 <
b1011 =
b1110 >
b0 ?
b0 @
b10011010 B
b10011010 D
b10011010 E
b110001010 F
b1101 G
b1100 H
b0 I
b0 J
b10011100 L
b10011100 N
b10011100 O
b110010110 P
b0 Q
b0 R
b1011 S
b1100 T
b101000000 U
b0 V
b101 W
b0 X
b0 Y

#140000
0!
0(

#145000
1!
1#
b10 %
b1100 &
1(
b0 -
b0 .
b0 /
b0 0
b1101 1
b1110 2
b0 5
b0 6
b0 =
b0 >
b1011 ?
b1110 @
b110001010 A
b0 B
b110 C
b0 D
b0 E
b110001010 F
b0 G
b0 H
b1101 I
b1100 J
b110010110 K
b0 L
b110 M
b0 N
b0 O
b110010110 P
b1101 Q
b1110 R
b0 S
b0 T
b10110110 V
b10110110 X
b10110110 Y
b111110110 Z

#150000
0!
0(

#155000
1!
1(
b0 1
b0 2
b0 ?
b0 @
b0 I
b0 J
b0 Q
b0 R
b1101 S
b1110 T
b111110110 U
b0 V
b110 W
b0 X
b0 Y

#160000
0!
0(

#165000
1!
1(
b0 S
b0 T

#170000
0!
0(

#175000
1!
1(

#180000
0!
0(

#185000
1!
1(

#190000
0!
0(

#195000
1!
1(

#200000
0!
0(

#205000
1!
0#
1(
b10 \
b10 ]
$dumpoff
x(
x)
x*
bx 3
bx 4
bx =
bx >
bx G
bx H
bx Q
bx R
x!
x"
x#
bx 7
bx A
bx K
bx U
bx 8
bx B
bx L
bx V
bx 9
bx C
bx M
bx W
bx $
bx %
bx &
bx '
bx 5
bx ?
bx I
bx S
bx 6
bx @
bx J
bx T
bx +
bx ,
bx -
bx .
bx /
bx 0
bx 1
bx 2
bx :
bx ;
bx <
bx D
bx E
bx F
bx N
bx O
bx P
bx X
bx Y
bx Z
bx [
bx \
bx ]
$end

