thermal_aware_mac_array/thermal_aware_mac_array.sim/sim_1/behav/xsim/systolic_mac_array_uniform_4x4.vcd
$date
   Mon Apr  6 22:30:21 2026
$end

$version
  2025.2
  $dumpfile ("systolic_mac_array_uniform_4x4.vcd") 
$end

$timescale
  1ps
$end

$scope module tb_systolic_mac_array $end
$var reg 1 ! clk $end
$var reg 1 " rst $end
$var reg 1 # en $end
$var reg 2 $ workload_id [1:0] $end
$var integer 32 % i [31:0] $end
$var integer 32 & c [31:0] $end
$var integer 32 ' HOT_N [31:0] $end
$scope module dut $end
$var wire 1 ( clk $end
$var wire 1 ) rst $end
$var wire 1 * en $end
$var reg 8 + \ROW[0].COL[0].a_in_cell  [7:0] $end
$var reg 8 , \ROW[0].COL[0].b_in_cell  [7:0] $end
$var reg 8 - \ROW[0].COL[1].a_in_cell  [7:0] $end
$var reg 8 . \ROW[0].COL[1].b_in_cell  [7:0] $end
$var reg 8 / \ROW[0].COL[2].a_in_cell  [7:0] $end
$var reg 8 0 \ROW[0].COL[2].b_in_cell  [7:0] $end
$var reg 8 1 \ROW[0].COL[3].a_in_cell  [7:0] $end
$var reg 8 2 \ROW[0].COL[3].b_in_cell  [7:0] $end
$var reg 8 3 \ROW[1].COL[0].a_in_cell  [7:0] $end
$var reg 8 4 \ROW[1].COL[0].b_in_cell  [7:0] $end
$var reg 8 5 \ROW[1].COL[1].a_in_cell  [7:0] $end
$var reg 8 6 \ROW[1].COL[1].b_in_cell  [7:0] $end
$var reg 8 7 \ROW[1].COL[2].a_in_cell  [7:0] $end
$var reg 8 8 \ROW[1].COL[2].b_in_cell  [7:0] $end
$var reg 8 9 \ROW[1].COL[3].a_in_cell  [7:0] $end
$var reg 8 : \ROW[1].COL[3].b_in_cell  [7:0] $end
$var reg 8 ; \ROW[2].COL[0].a_in_cell  [7:0] $end
$var reg 8 < \ROW[2].COL[0].b_in_cell  [7:0] $end
$var reg 8 = \ROW[2].COL[1].a_in_cell  [7:0] $end
$var reg 8 > \ROW[2].COL[1].b_in_cell  [7:0] $end
$var reg 8 ? \ROW[2].COL[2].a_in_cell  [7:0] $end
$var reg 8 @ \ROW[2].COL[2].b_in_cell  [7:0] $end
$var reg 8 A \ROW[2].COL[3].a_in_cell  [7:0] $end
$var reg 8 B \ROW[2].COL[3].b_in_cell  [7:0] $end
$var reg 8 C \ROW[3].COL[0].a_in_cell  [7:0] $end
$var reg 8 D \ROW[3].COL[0].b_in_cell  [7:0] $end
$var reg 8 E \ROW[3].COL[1].a_in_cell  [7:0] $end
$var reg 8 F \ROW[3].COL[1].b_in_cell  [7:0] $end
$var reg 8 G \ROW[3].COL[2].a_in_cell  [7:0] $end
$var reg 8 H \ROW[3].COL[2].b_in_cell  [7:0] $end
$var reg 8 I \ROW[3].COL[3].a_in_cell  [7:0] $end
$var reg 8 J \ROW[3].COL[3].b_in_cell  [7:0] $end
$scope module ROW[0].COL[0].u_cell $end
$var wire 1 ( clk $end
$var wire 1 ) rst $end
$var wire 1 * en $end
$var wire 8 K a_in [7:0] $end
$var wire 8 L b_in [7:0] $end
$var reg 8 M a_out [127:120] $end
$var reg 8 N b_out [127:120] $end
$var reg 32 O acc_out [511:480] $end
$var reg 16 P mult_out [255:240] $end
$var reg 16 Q activity_count [255:240] $end
$var reg 16 R mult [15:0] $end
$var reg 32 S mult_ext [31:0] $end
$var reg 32 T acc_next [31:0] $end
$upscope $end
$scope module ROW[0].COL[1].u_cell $end
$var wire 1 ( clk $end
$var wire 1 ) rst $end
$var wire 1 * en $end
$var wire 8 U a_in [7:0] $end
$var wire 8 V b_in [7:0] $end
$var reg 8 W a_out [119:112] $end
$var reg 8 X b_out [119:112] $end
$var reg 32 Y acc_out [479:448] $end
$var reg 16 Z mult_out [239:224] $end
$var reg 16 [ activity_count [239:224] $end
$var reg 16 \ mult [15:0] $end
$var reg 32 ] mult_ext [31:0] $end
$var reg 32 ^ acc_next [31:0] $end
$upscope $end
$scope module ROW[0].COL[2].u_cell $end
$var wire 1 ( clk $end
$var wire 1 ) rst $end
$var wire 1 * en $end
$var wire 8 _ a_in [7:0] $end
$var wire 8 ` b_in [7:0] $end
$var reg 8 a a_out [111:104] $end
$var reg 8 b b_out [111:104] $end
$var reg 32 c acc_out [447:416] $end
$var reg 16 d mult_out [223:208] $end
$var reg 16 e activity_count [223:208] $end
$var reg 16 f mult [15:0] $end
$var reg 32 g mult_ext [31:0] $end
$var reg 32 h acc_next [31:0] $end
$upscope $end
$scope module ROW[0].COL[3].u_cell $end
$var wire 1 ( clk $end
$var wire 1 ) rst $end
$var wire 1 * en $end
$var wire 8 i a_in [7:0] $end
$var wire 8 j b_in [7:0] $end
$var reg 8 k a_out [103:96] $end
$var reg 8 l b_out [103:96] $end
$var reg 32 m acc_out [415:384] $end
$var reg 16 n mult_out [207:192] $end
$var reg 16 o activity_count [207:192] $end
$var reg 16 p mult [15:0] $end
$var reg 32 q mult_ext [31:0] $end
$var reg 32 r acc_next [31:0] $end
$upscope $end
$scope module ROW[1].COL[0].u_cell $end
$var wire 1 ( clk $end
$var wire 1 ) rst $end
$var wire 1 * en $end
$var wire 8 s a_in [7:0] $end
$var wire 8 t b_in [7:0] $end
$var reg 8 u a_out [95:88] $end
$var reg 8 v b_out [95:88] $end
$var reg 32 w acc_out [383:352] $end
$var reg 16 x mult_out [191:176] $end
$var reg 16 y activity_count [191:176] $end
$var reg 16 z mult [15:0] $end
$var reg 32 { mult_ext [31:0] $end
$var reg 32 | acc_next [31:0] $end
$upscope $end
$scope module ROW[1].COL[1].u_cell $end
$var wire 1 ( clk $end
$var wire 1 ) rst $end
$var wire 1 * en $end
$var wire 8 } a_in [7:0] $end
$var wire 8 ~ b_in [7:0] $end
$var reg 8 !! a_out [87:80] $end
$var reg 8 "! b_out [87:80] $end
$var reg 32 #! acc_out [351:320] $end
$var reg 16 $! mult_out [175:160] $end
$var reg 16 %! activity_count [175:160] $end
$var reg 16 &! mult [15:0] $end
$var reg 32 '! mult_ext [31:0] $end
$var reg 32 (! acc_next [31:0] $end
$upscope $end
$scope module ROW[1].COL[2].u_cell $end
$var wire 1 ( clk $end
$var wire 1 ) rst $end
$var wire 1 * en $end
$var wire 8 )! a_in [7:0] $end
$var wire 8 *! b_in [7:0] $end
$var reg 8 +! a_out [79:72] $end
$var reg 8 ,! b_out [79:72] $end
$var reg 32 -! acc_out [319:288] $end
$var reg 16 .! mult_out [159:144] $end
$var reg 16 /! activity_count [159:144] $end
$var reg 16 0! mult [15:0] $end
$var reg 32 1! mult_ext [31:0] $end
$var reg 32 2! acc_next [31:0] $end
$upscope $end
$scope module ROW[1].COL[3].u_cell $end
$var wire 1 ( clk $end
$var wire 1 ) rst $end
$var wire 1 * en $end
$var wire 8 3! a_in [7:0] $end
$var wire 8 4! b_in [7:0] $end
$var reg 8 5! a_out [71:64] $end
$var reg 8 6! b_out [71:64] $end
$var reg 32 7! acc_out [287:256] $end
$var reg 16 8! mult_out [143:128] $end
$var reg 16 9! activity_count [143:128] $end
$var reg 16 :! mult [15:0] $end
$var reg 32 ;! mult_ext [31:0] $end
$var reg 32 <! acc_next [31:0] $end
$upscope $end
$scope module ROW[2].COL[0].u_cell $end
$var wire 1 ( clk $end
$var wire 1 ) rst $end
$var wire 1 * en $end
$var wire 8 =! a_in [7:0] $end
$var wire 8 >! b_in [7:0] $end
$var reg 8 ?! a_out [63:56] $end
$var reg 8 @! b_out [63:56] $end
$var reg 32 A! acc_out [255:224] $end
$var reg 16 B! mult_out [127:112] $end
$var reg 16 C! activity_count [127:112] $end
$var reg 16 D! mult [15:0] $end
$var reg 32 E! mult_ext [31:0] $end
$var reg 32 F! acc_next [31:0] $end
$upscope $end
$scope module ROW[2].COL[1].u_cell $end
$var wire 1 ( clk $end
$var wire 1 ) rst $end
$var wire 1 * en $end
$var wire 8 G! a_in [7:0] $end
$var wire 8 H! b_in [7:0] $end
$var reg 8 I! a_out [55:48] $end
$var reg 8 J! b_out [55:48] $end
$var reg 32 K! acc_out [223:192] $end
$var reg 16 L! mult_out [111:96] $end
$var reg 16 M! activity_count [111:96] $end
$var reg 16 N! mult [15:0] $end
$var reg 32 O! mult_ext [31:0] $end
$var reg 32 P! acc_next [31:0] $end
$upscope $end
$scope module ROW[2].COL[2].u_cell $end
$var wire 1 ( clk $end
$var wire 1 ) rst $end
$var wire 1 * en $end
$var wire 8 Q! a_in [7:0] $end
$var wire 8 R! b_in [7:0] $end
$var reg 8 S! a_out [47:40] $end
$var reg 8 T! b_out [47:40] $end
$var reg 32 U! acc_out [191:160] $end
$var reg 16 V! mult_out [95:80] $end
$var reg 16 W! activity_count [95:80] $end
$var reg 16 X! mult [15:0] $end
$var reg 32 Y! mult_ext [31:0] $end
$var reg 32 Z! acc_next [31:0] $end
$upscope $end
$scope module ROW[2].COL[3].u_cell $end
$var wire 1 ( clk $end
$var wire 1 ) rst $end
$var wire 1 * en $end
$var wire 8 [! a_in [7:0] $end
$var wire 8 \! b_in [7:0] $end
$var reg 8 ]! a_out [39:32] $end
$var reg 8 ^! b_out [39:32] $end
$var reg 32 _! acc_out [159:128] $end
$var reg 16 `! mult_out [79:64] $end
$var reg 16 a! activity_count [79:64] $end
$var reg 16 b! mult [15:0] $end
$var reg 32 c! mult_ext [31:0] $end
$var reg 32 d! acc_next [31:0] $end
$upscope $end
$scope module ROW[3].COL[0].u_cell $end
$var wire 1 ( clk $end
$var wire 1 ) rst $end
$var wire 1 * en $end
$var wire 8 e! a_in [7:0] $end
$var wire 8 f! b_in [7:0] $end
$var reg 8 g! a_out [31:24] $end
$var reg 8 h! b_out [31:24] $end
$var reg 32 i! acc_out [127:96] $end
$var reg 16 j! mult_out [63:48] $end
$var reg 16 k! activity_count [63:48] $end
$var reg 16 l! mult [15:0] $end
$var reg 32 m! mult_ext [31:0] $end
$var reg 32 n! acc_next [31:0] $end
$upscope $end
$scope module ROW[3].COL[1].u_cell $end
$var wire 1 ( clk $end
$var wire 1 ) rst $end
$var wire 1 * en $end
$var wire 8 o! a_in [7:0] $end
$var wire 8 p! b_in [7:0] $end
$var reg 8 q! a_out [23:16] $end
$var reg 8 r! b_out [23:16] $end
$var reg 32 s! acc_out [95:64] $end
$var reg 16 t! mult_out [47:32] $end
$var reg 16 u! activity_count [47:32] $end
$var reg 16 v! mult [15:0] $end
$var reg 32 w! mult_ext [31:0] $end
$var reg 32 x! acc_next [31:0] $end
$upscope $end
$scope module ROW[3].COL[2].u_cell $end
$var wire 1 ( clk $end
$var wire 1 ) rst $end
$var wire 1 * en $end
$var wire 8 y! a_in [7:0] $end
$var wire 8 z! b_in [7:0] $end
$var reg 8 {! a_out [15:8] $end
$var reg 8 |! b_out [15:8] $end
$var reg 32 }! acc_out [63:32] $end
$var reg 16 ~! mult_out [31:16] $end
$var reg 16 !" activity_count [31:16] $end
$var reg 16 "" mult [15:0] $end
$var reg 32 #" mult_ext [31:0] $end
$var reg 32 $" acc_next [31:0] $end
$upscope $end
$scope module ROW[3].COL[3].u_cell $end
$var wire 1 ( clk $end
$var wire 1 ) rst $end
$var wire 1 * en $end
$var wire 8 %" a_in [7:0] $end
$var wire 8 &" b_in [7:0] $end
$var reg 8 '" a_out [7:0] $end
$var reg 8 (" b_out [7:0] $end
$var reg 32 )" acc_out [31:0] $end
$var reg 16 *" mult_out [15:0] $end
$var reg 16 +" activity_count [15:0] $end
$var reg 16 ," mult [15:0] $end
$var reg 32 -" mult_ext [31:0] $end
$var reg 32 ." acc_next [31:0] $end
$upscope $end
$upscope $end
$scope task clear_inputs $end
$upscope $end
$scope task reset_dut $end
$upscope $end
$scope task uniform_stream $end
$var integer 32 /" cycles [31:0] $end
$upscope $end
$scope task print_activity_counts $end
$var integer 32 0" r [31:0] $end
$var integer 32 1" col [31:0] $end
$upscope $end
$upscope $end
$enddefinitions $end

#0
$dumpvars
1!
b0 !!
b0 !"
0"
b0 "!
b0 ""
0#
b0 #!
b0 #"
b0 $
b0 $!
b0 $"
b100 %
b0 %!
b0 %"
bx &
b0 &!
b0 &"
bx '
b0 '!
b0 '"
1(
b0 (!
b0 ("
1)
b0 )!
b0 )"
0*
b0 *!
b0 *"
b0 +
b0 +!
b0 +"
b0 ,
b0 ,!
b0 ,"
b0 -
b0 -!
b0 -"
b0 .
b0 .!
b0 ."
b0 /
b0 /!
bx /"
b0 0
b0 0!
bx 0"
b0 1
b0 1!
bx 1"
b0 2
b0 2!
b0 3
b0 3!
b0 4
b0 4!
b0 5
b0 5!
b0 6
b0 6!
b0 7
b0 7!
b0 8
b0 8!
b0 9
b0 9!
b0 :
b0 :!
b0 ;
b0 ;!
b0 <
b0 <!
b0 =
b0 =!
b0 >
b0 >!
b0 ?
b0 ?!
b0 @
b0 @!
b0 A
b0 A!
b0 B
b0 B!
b0 C
b0 C!
b0 D
b0 D!
b0 E
b0 E!
b0 F
b0 F!
b0 G
b0 G!
b0 H
b0 H!
b0 I
b0 I!
b0 J
b0 J!
b0 K
b0 K!
b0 L
b0 L!
b0 M
b0 M!
b0 N
b0 N!
b0 O
b0 O!
b0 P
b0 P!
b0 Q
b0 Q!
b0 R
b0 R!
b0 S
b0 S!
b0 T
b0 T!
b0 U
b0 U!
b0 V
b0 V!
b0 W
b0 W!
b0 X
b0 X!
b0 Y
b0 Y!
b0 Z
b0 Z!
b0 [
b0 [!
b0 \
b0 \!
b0 ]
b0 ]!
b0 ^
b0 ^!
b0 _
b0 _!
b0 `
b0 `!
b0 a
b0 a!
b0 b
b0 b!
b0 c
b0 c!
b0 d
b0 d!
b0 e
b0 e!
b0 f
b0 f!
b0 g
b0 g!
b0 h
b0 h!
b0 i
b0 i!
b0 j
b0 j!
b0 k
b0 k!
b0 l
b0 l!
b0 m
b0 m!
b0 n
b0 n!
b0 o
b0 o!
b0 p
b0 p!
b0 q
b0 q!
b0 r
b0 r!
b0 s
b0 s!
b0 t
b0 t!
b0 u
b0 u!
b0 v
b0 v!
b0 w
b0 w!
b0 x
b0 x!
b0 y
b0 y!
b0 z
b0 z!
b0 {
b0 {!
b0 |
b0 |!
b0 }
b0 }!
b0 ~
b0 ~!
$end

#25000
1#
b100 %
b0 &
0)
1*
b1 +
b10 ,
b11 .
b1100 /"
b100 0
b101 2
b10 3
b11 ;
b11 =!
b100 C
b1 K
b10 L
b10 P
b10 R
b10 S
b10 T
b11 V
b100 `
b100 e!
b101 j
b10 s

#30000
0!
0(

#35000
1!
b110 $!
b100 %
b1 &
b110 &!
b110 '!
1(
b110 (!
b100 *!
b10 +
b11 ,
b1 -
b100 .
b101 0
b110 2
b11 3
b10 4
b101 4!
b10 5
b11 6
b100 8
b101 :
b100 ;
b11 =
b100 =!
b11 ?!
b101 C
b1 C!
b100 E
b11 G!
b10 K
b11 L
b1 M
b10 N
b10 O
b110 P
b1 Q
b110 R
b110 S
b1000 T
b1 U
b100 V
b11 X
b100 Z
b1 [
b100 \
b100 ]
b100 ^
b101 `
b100 b
b1 e
b101 e!
b100 g!
b110 j
b1 k!
b101 l
b1 o
b100 o!
b11 s
b10 t
b10 u
b110 x
b1 y
b110 z
b110 {
b110 |
b10 }
b11 ~

#40000
0!
0(

#45000
1!
b10 !!
b11 "!
b110 #!
b1100 $!
b100 %
b1 %!
b10 &
b1100 &!
b1100 '!
1(
b10010 (!
b10 )!
b101 *!
b11 +
b100 ,
b100 ,!
b10 -
b101 .
b1010 .!
b1 /
b1 /!
b110 0
b1010 0!
b1010 1!
b111 2
b1010 2!
b100 3
b11 4
b110 4!
b11 5
b100 6
b101 6!
b10 7
b101 8
b1 9!
b110 :
b101 ;
b10 <
b100 =
b101 =!
b11 >
b10 >!
b11 ?
b100 ?!
b100 @
b101 B
b1010 B!
b110 C
b10 C!
b1010 D!
b101 E
b1010 E!
b1010 F!
b100 G
b100 G!
b11 H!
b11 I!
b11 K
b100 L
b1100 L!
b10 M
b1 M!
b11 N
b1100 N!
b1000 O
b1100 O!
b1100 P
b1100 P!
b10 Q
b11 Q!
b1100 R
b100 R!
b1100 S
b10100 T
b10 U
b101 V
b1100 V!
b1 W
b100 X
b1100 X!
b100 Y
b1100 Y!
b1010 Z
b1100 Z!
b10 [
b1010 \
b101 \!
b1010 ]
b1110 ^
b1 _
b110 `
b101 b
b110 d
b10 e
b110 e!
b110 f
b110 g
b101 g!
b110 h
b111 j
b10 k!
b110 l
b10 o
b101 o!
b100 q!
b100 s
b11 t
b11 u
b1 u!
b10 v
b110 w
b1100 x
b10 y
b100 y!
b1100 z
b1100 {
b10010 |
b11 }
b100 ~

#50000
0!
0(

#55000
1!
b11 !!
b1 !"
b100 "!
b10100 ""
b10010 #!
b10100 #"
b10100 $!
b10100 $"
b100 %
b10 %!
b100 %"
b11 &
b10100 &!
b101 &"
b10100 '!
1(
b100110 (!
b11 )!
b110 *!
b10100 *"
b100 +
b10 +!
b101 ,
b101 ,!
b10100 ,"
b11 -
b1010 -!
b10100 -"
b110 .
b10010 .!
b10100 ."
b10 /
b10 /!
b111 0
b10010 0!
b1 1
b10010 1!
b1000 2
b11100 2!
b101 3
b10 3!
b100 4
b111 4!
b100 5
b101 6
b110 6!
b11 7
b110 8
b1110 8!
b10 9
b10 9!
b111 :
b1110 :!
b110 ;
b1110 ;!
b11 <
b1110 <!
b101 =
b110 =!
b100 >
b11 >!
b100 ?
b101 ?!
b101 @
b10 @!
b11 A
b1010 A!
b110 B
b10010 B!
b111 C
b11 C!
b10 D
b10010 D!
b110 E
b10010 E!
b11 F
b11100 F!
b101 G
b101 G!
b100 H
b100 H!
b100 I
b100 I!
b101 J
b11 J!
b100 K
b1100 K!
b101 L
b10100 L!
b11 M
b10 M!
b100 N
b10100 N!
b10100 O
b10100 O!
b10100 P
b100000 P!
b11 Q
b100 Q!
b10100 R
b101 R!
b10100 S
b11 S!
b101000 T
b100 T!
b11 U
b1100 U!
b110 V
b10100 V!
b10 W
b1 W!
b101 X
b10100 X!
b1110 Y
b10100 Y!
b10010 Z
b100000 Z!
b11 [
b11 [!
b10010 \
b110 \!
b10010 ]
b100000 ^
b101 ^!
b10 _
b111 `
b10010 `!
b1 a
b1 a!
b110 b
b10010 b!
b110 c
b10010 c!
b1110 d
b10010 d!
b11 e
b111 e!
b1110 f
b10 f!
b1110 g
b110 g!
b10100 h
b1 i
b1000 j
b1110 j!
b11 k!
b111 l
b1110 l!
b1110 m!
b1000 n
b1110 n!
b11 o
b110 o!
b1000 p
b11 p!
b1000 q
b101 q!
b1000 r
b101 s
b100 t
b10010 t!
b100 u
b10 u!
b11 v
b10010 v!
b10010 w
b10010 w!
b10100 x
b10010 x!
b11 y
b101 y!
b10100 z
b100 z!
b10100 {
b100 {!
b100110 |
b100 }
b101 ~
b10100 ~!

#60000
0!
0(

#65000
1!
b100 !!
b10 !"
b101 "!
b11110 ""
b100110 #!
b11110 #"
b11110 $!
b110010 $"
b100 %
b11 %!
b101 %"
b100 &
b11110 &!
b110 &"
b11110 '!
b100 '"
1(
b1000100 (!
b101 ("
b100 )!
b10100 )"
b111 *!
b11110 *"
b101 +
b11 +!
b1 +"
b110 ,
b110 ,!
b11110 ,"
b100 -
b11100 -!
b11110 -"
b111 .
b11100 .!
b110010 ."
b11 /
b11 /!
b1000 0
b11100 0!
b10 1
b11100 1!
b1001 2
b111000 2!
b110 3
b11 3!
b101 4
b1000 4!
b101 5
b10 5!
b110 6
b111 6!
b100 7
b1110 7!
b111 8
b11000 8!
b11 9
b11 9!
b1000 :
b11000 :!
b111 ;
b11000 ;!
b100 <
b100110 <!
b110 =
b111 =!
b101 >
b100 >!
b101 ?
b110 ?!
b110 @
b11 @!
b100 A
b11100 A!
b111 B
b11100 B!
b1000 C
b100 C!
b11 D
b11100 D!
b111 E
b11100 E!
b100 F
b111000 F!
b110 G
b110 G!
b101 H
b101 H!
b101 I
b101 I!
b110 J
b100 J!
b101 K
b100000 K!
b110 L
b11110 L!
b100 M
b11 M!
b101 N
b11110 N!
b101000 O
b11110 O!
b11110 P
b111110 P!
b100 Q
b101 Q!
b11110 R
b110 R!
b11110 S
b100 S!
b1000110 T
b101 T!
b100 U
b100000 U!
b111 V
b11110 V!
b11 W
b10 W!
b110 X
b11110 X!
b100000 Y
b11110 Y!
b11100 Z
b111110 Z!
b100 [
b100 [!
b11100 \
b111 \!
b11100 ]
b11 ]!
b111100 ^
b110 ^!
b11 _
b10010 _!
b1000 `
b11100 `!
b10 a
b10 a!
b111 b
b11100 b!
b10100 c
b11100 c!
b11000 d
b101110 d!
b100 e
b1000 e!
b11000 f
b11 f!
b11000 g
b111 g!
b101100 h
b10 h!
b10 i
b1110 i!
b1001 j
b11000 j!
b1 k
b100 k!
b1000 l
b11000 l!
b1000 m
b11000 m!
b10010 n
b100110 n!
b100 o
b111 o!
b10010 p
b100 p!
b10010 q
b110 q!
b11010 r
b11 r!
b110 s
b10010 s!
b101 t
b11100 t!
b101 u
b11 u!
b100 v
b11100 v!
b100110 w
b11100 w!
b11110 x
b101110 x!
b100 y
b110 y!
b11110 z
b101 z!
b11110 {
b101 {!
b1000100 |
b100 |!
b101 }
b10100 }!
b110 ~
b11110 ~!

#70000
0!
0(

#75000
1!
b101 !!
b11 !"
b110 "!
b101010 ""
b1000100 #!
b101010 #"
b101010 $!
b1011100 $"
b100 %
b100 %!
b110 %"
b101 &
b101010 &!
b111 &"
b101010 '!
b101 '"
1(
b1101110 (!
b110 ("
b101 )!
b110010 )"
b1000 *!
b101010 *"
b110 +
b100 +!
b10 +"
b111 ,
b111 ,!
b101010 ,"
b101 -
b111000 -!
b101010 -"
b1000 .
b101000 .!
b1011100 ."
b100 /
b100 /!
b1001 0
b101000 0!
b11 1
b101000 1!
b1010 2
b1100000 2!
b111 3
b100 3!
b110 4
b1001 4!
b110 5
b11 5!
b111 6
b1000 6!
b101 7
b100110 7!
b1000 8
b100100 8!
b100 9
b100 9!
b1001 :
b100100 :!
b1000 ;
b100100 ;!
b101 <
b1001010 <!
b111 =
b1000 =!
b110 >
b101 >!
b110 ?
b111 ?!
b111 @
b100 @!
b101 A
b111000 A!
b1000 B
b101000 B!
b1001 C
b101 C!
b100 D
b101000 D!
b1000 E
b101000 E!
b101 F
b1100000 F!
b111 G
b111 G!
b110 H
b110 H!
b110 I
b110 I!
b111 J
b101 J!
b110 K
b111110 K!
b111 L
b101010 L!
b101 M
b100 M!
b110 N
b101010 N!
b1000110 O
b101010 O!
b101010 P
b1101000 P!
b101 Q
b110 Q!
b101010 R
b111 R!
b101010 S
b101 S!
b1110000 T
b110 T!
b101 U
b111110 U!
b1000 V
b101010 V!
b100 W
b11 W!
b111 X
b101010 X!
b111100 Y
b101010 Y!
b101000 Z
b1101000 Z!
b101 [
b101 [!
b101000 \
b1000 \!
b101000 ]
b100 ]!
b1100100 ^
b111 ^!
b100 _
b101110 _!
b1001 `
b101000 `!
b11 a
b11 a!
b1000 b
b101000 b!
b101100 c
b101000 c!
b100100 d
b1010110 d!
b101 e
b1001 e!
b100100 f
b100 f!
b100100 g
b1000 g!
b1010000 h
b11 h!
b11 i
b100110 i!
b1010 j
b100100 j!
b10 k
b101 k!
b1001 l
b100100 l!
b11010 m
b100100 m!
b11110 n
b1001010 n!
b101 o
b1000 o!
b11110 p
b101 p!
b11110 q
b111 q!
b111000 r
b100 r!
b111 s
b101110 s!
b110 t
b101000 t!
b110 u
b100 u!
b101 v
b101000 v!
b1000100 w
b101000 w!
b101010 x
b1010110 x!
b101 y
b111 y!
b101010 z
b110 z!
b101010 {
b110 {!
b1101110 |
b101 |!
b110 }
b110010 }!
b111 ~
b101010 ~!

#80000
0!
0(

#85000
1!
b110 !!
b100 !"
b111 "!
b111000 ""
b1101110 #!
b111000 #"
b111000 $!
b10010100 $"
b100 %
b101 %!
b111 %"
b110 &
b111000 &!
b1000 &"
b111000 '!
b110 '"
1(
b10100110 (!
b111 ("
b110 )!
b1011100 )"
b1001 *!
b111000 *"
b111 +
b101 +!
b11 +"
b1000 ,
b1000 ,!
b111000 ,"
b110 -
b1100000 -!
b111000 -"
b1001 .
b110110 .!
b10010100 ."
b101 /
b101 /!
b1010 0
b110110 0!
b100 1
b110110 1!
b1011 2
b10010110 2!
b1000 3
b101 3!
b111 4
b1010 4!
b111 5
b100 5!
b1000 6
b1001 6!
b110 7
b1001010 7!
b1001 8
b110010 8!
b101 9
b101 9!
b1010 :
b110010 :!
b1001 ;
b110010 ;!
b110 <
b1111100 <!
b1000 =
b1001 =!
b111 >
b110 >!
b111 ?
b1000 ?!
b1000 @
b101 @!
b110 A
b1100000 A!
b1001 B
b110110 B!
b1010 C
b110 C!
b101 D
b110110 D!
b1001 E
b110110 E!
b110 F
b10010110 F!
b1000 G
b1000 G!
b111 H
b111 H!
b111 I
b111 I!
b1000 J
b110 J!
b111 K
b1101000 K!
b1000 L
b111000 L!
b110 M
b101 M!
b111 N
b111000 N!
b1110000 O
b111000 O!
b111000 P
b10100000 P!
b110 Q
b111 Q!
b111000 R
b1000 R!
b111000 S
b110 S!
b10101000 T
b111 T!
b110 U
b1101000 U!
b1001 V
b111000 V!
b101 W
b100 W!
b1000 X
b111000 X!
b1100100 Y
b111000 Y!
b110110 Z
b10100000 Z!
b110 [
b110 [!
b110110 \
b1001 \!
b110110 ]
b101 ]!
b10011010 ^
b1000 ^!
b101 _
b1010110 _!
b1010 `
b110110 `!
b100 a
b100 a!
b1001 b
b110110 b!
b1010000 c
b110110 c!
b110010 d
b10001100 d!
b110 e
b1010 e!
b110010 f
b101 f!
b110010 g
b1001 g!
b10000010 h
b100 h!
b100 i
b1001010 i!
b1011 j
b110010 j!
b11 k
b110 k!
b1010 l
b110010 l!
b111000 m
b110010 m!
b101100 n
b1111100 n!
b110 o
b1001 o!
b101100 p
b110 p!
b101100 q
b1000 q!
b1100100 r
b101 r!
b1000 s
b1010110 s!
b111 t
b110110 t!
b111 u
b101 u!
b110 v
b110110 v!
b1101110 w
b110110 w!
b111000 x
b10001100 x!
b110 y
b1000 y!
b111000 z
b111 z!
b111000 {
b111 {!
b10100110 |
b110 |!
b111 }
b1011100 }!
b1000 ~
b111000 ~!

#90000
0!
0(

#95000
1!
b111 !!
b101 !"
b1000 "!
b1001000 ""
b10100110 #!
b1001000 #"
b1001000 $!
b11011100 $"
b100 %
b110 %!
b1000 %"
b111 &
b1001000 &!
b1001 &"
b1001000 '!
b111 '"
1(
b11101110 (!
b1000 ("
b111 )!
b10010100 )"
b1010 *!
b1001000 *"
b1000 +
b110 +!
b100 +"
b1001 ,
b1001 ,!
b1001000 ,"
b111 -
b10010110 -!
b1001000 -"
b1010 .
b1000110 .!
b11011100 ."
b110 /
b110 /!
b1011 0
b1000110 0!
b101 1
b1000110 1!
b1100 2
b11011100 2!
b1001 3
b110 3!
b1000 4
b1011 4!
b1000 5
b101 5!
b1001 6
b1010 6!
b111 7
b1111100 7!
b1010 8
b1000010 8!
b110 9
b110 9!
b1011 :
b1000010 :!
b1010 ;
b1000010 ;!
b111 <
b10111110 <!
b1001 =
b1010 =!
b1000 >
b111 >!
b1000 ?
b1001 ?!
b1001 @
b110 @!
b111 A
b10010110 A!
b1010 B
b1000110 B!
b1011 C
b111 C!
b110 D
b1000110 D!
b1010 E
b1000110 E!
b111 F
b11011100 F!
b1001 G
b1001 G!
b1000 H
b1000 H!
b1000 I
b1000 I!
b1001 J
b111 J!
b1000 K
b10100000 K!
b1001 L
b1001000 L!
b111 M
b110 M!
b1000 N
b1001000 N!
b10101000 O
b1001000 O!
b1001000 P
b11101000 P!
b111 Q
b1000 Q!
b1001000 R
b1001 R!
b1001000 S
b111 S!
b11110000 T
b1000 T!
b111 U
b10100000 U!
b1010 V
b1001000 V!
b110 W
b101 W!
b1001 X
b1001000 X!
b10011010 Y
b1001000 Y!
b1000110 Z
b11101000 Z!
b111 [
b111 [!
b1000110 \
b1010 \!
b1000110 ]
b110 ]!
b11100000 ^
b1001 ^!
b110 _
b10001100 _!
b1011 `
b1000110 `!
b101 a
b101 a!
b1010 b
b1000110 b!
b10000010 c
b1000110 c!
b1000010 d
b11010010 d!
b111 e
b1011 e!
b1000010 f
b110 f!
b1000010 g
b1010 g!
b11000100 h
b101 h!
b101 i
b1111100 i!
b1100 j
b1000010 j!
b100 k
b111 k!
b1011 l
b1000010 l!
b1100100 m
b1000010 m!
b111100 n
b10111110 n!
b111 o
b1010 o!
b111100 p
b111 p!
b111100 q
b1001 q!
b10100000 r
b110 r!
b1001 s
b10001100 s!
b1000 t
b1000110 t!
b1000 u
b110 u!
b111 v
b1000110 v!
b10100110 w
b1000110 w!
b1001000 x
b11010010 x!
b111 y
b1001 y!
b1001000 z
b1000 z!
b1001000 {
b1000 {!
b11101110 |
b111 |!
b1000 }
b10010100 }!
b1001 ~
b1001000 ~!

#100000
0!
0(

